<?xml version="1.0" encoding="utf-8"?>
<!-- Generator: Adobe Illustrator 23.0.3, SVG Export Plug-In . SVG Version: 6.00 Build 0)  -->
<svg version="1.1" id="Layer_1" xmlns="http://www.w3.org/2000/svg" xmlns:xlink="http://www.w3.org/1999/xlink" x="0px" y="0px"
	 viewBox="0 0 578.6 184.59" style="enable-background:new 0 0 578.6 184.59;" xml:space="preserve">
<style type="text/css">
	.st0{fill:url(#Path_2_1_);}
</style>
<linearGradient id="Path_2_1_" gradientUnits="userSpaceOnUse" x1="335.3826" y1="184.9981" x2="335.6705" y2="184.5982" gradientTransform="matrix(1447 0 0 -461.72 -485082.9375 85404.9531)">
	<stop  offset="0" style="stop-color:#F88A00"/>
	<stop  offset="1" style="stop-color:#EB2126"/>
</linearGradient>
<path id="Path_2" class="st0" d="M578.59,184.59C325.21,68.4,85.67,161.91,0-0.03c0.08,0.08,578.6,0,578.6,0L578.59,184.59z"/>
</svg>
