<?xml version="1.0" encoding="utf-8"?>
<!-- Generator: Adobe Illustrator 24.1.1, SVG Export Plug-In . SVG Version: 6.00 Build 0)  -->
<svg version="1.1" id="Layer_1" xmlns="http://www.w3.org/2000/svg" xmlns:xlink="http://www.w3.org/1999/xlink" x="0px" y="0px"
	 viewBox="0 0 100 100" style="enable-background:new 0 0 100 100;" xml:space="preserve">
<style type="text/css">
	.st0{fill:#F88A00;}
</style>
<path class="st0" d="M95.1,68.4c-0.1-0.6-0.5-1.5-1.9-2.1c-0.6-0.3-1.2-0.6-1.8-0.9c-2.2-1.1-4.5-2.3-6.9-3.2
	c-2.3-0.8-4.6-1.5-6.9-2.1c-0.6-0.2-1.3-0.3-1.9-0.5c3.2-7.2,5.2-15.2,5.8-23.8c0.1-1.7-0.2-2.8-1-3.4c-0.8-0.6-1.9-0.7-3.5-0.1
	c-0.6,0.2-1.1,0.4-1.5,0.6c-3.9,2-7.8,4-11.7,6l-1.6,0.8c-0.8-8-3.9-16-9.2-23.7c-0.8-1.1-1.8-2.3-3.1-2.3c0,0,0,0,0,0
	c-1.3,0-2.3,1.2-3.1,2.4c-4.8,7.1-7.6,13.8-8.8,20.7c-0.2,1-0.3,1.9-0.3,2.8c-1.1-0.5-2.1-1.1-3.2-1.6c-3.5-1.8-7.1-3.6-10.8-5.3
	c-1.3-0.6-2.9-1.2-4-0.4c-1.2,0.8-1.2,2.5-1,4.1c0.8,8.7,2.7,16.4,5.8,23.3c-0.1,0-0.3,0.1-0.4,0.1c-5.4,0.8-10.8,2.7-17.1,6.2
	c-1,0.6-2.2,1.4-2.4,2.6c-0.1,1.2,0.8,2.2,1.6,2.9c3.6,3.1,7.3,6.4,11.2,9.2c5.6,4,12.4,5.8,20.1,5.3c5.5-0.4,9.4-1.8,12-4.5
	c0.6,0.3,1.3,0.7,1.9,1c1.8,1,3.6,2,5.4,2.6c2.2,0.7,4.5,1.1,7,1.1c2.3,0,4.7-0.3,7.4-0.9c10.1-2.2,17.4-8.9,22.7-14.5
	C95.2,69.9,95.2,68.9,95.1,68.4z M54.7,70.5c1.6-1.5,3.8-2.8,6.4-3.9c3.1-1.3,6.2-1.9,9.5-1.9c4.3,0,8.9,1.1,13.9,3.2
	c1,0.4,2,0.9,3,1.4c0.1,0.1,0.2,0.1,0.4,0.2c-6.6,6.4-15,12.4-26.5,11.1c-2-0.2-3.9-0.7-5.4-1.5c-1.9-0.9-3.1-2.3-3.3-4
	C52.5,73.5,53.2,71.9,54.7,70.5z M75.7,40c-0.3,2-0.6,3.9-1.1,5.8c-0.8,2.9-1.9,5.9-2.9,8.7c-0.5,1.3-0.9,2.6-1.4,3.9
	c-0.3,0.8-0.7,0.9-2,1.2c-4.3,1-8.5,2-12.5,3.6c-2.5,1-4.5,2.6-6.1,4.8c0.2-2.6,1.1-4.9,2.1-7c4.4-9.8,12.3-17.1,24.1-22.3
	C75.9,39.1,75.8,39.5,75.7,40z M44.4,70.7c0.3,1.9,0.9,3.8,1.8,5.4c0.4,0.8,0.4,0.9-0.1,1.4c-2.2,2.4-5.3,2.8-8.2,3.1
	c-8,0.7-15.1-1.9-22.6-8.2c-1-0.9-2.1-1.8-3-2.7l-0.1-0.1c10.8-6.1,21.7-6.5,30.9-1C43.9,69.1,44.2,69.6,44.4,70.7z M46.7,59.2
	c-0.1,0.5-0.4,1.1-0.6,1.6c-0.2,0.3-0.3,0.7-0.4,1c-0.2,0.5-0.4,1-0.6,1.6c-4.4-2.4-9-3.7-14.2-4.2c-0.1,0-0.4-0.3-0.5-0.5
	c-3.4-6.1-4.8-12.8-5.9-20.2c10.8,4.8,17.6,10.7,22.1,18.7C46.8,57.6,46.9,58.3,46.7,59.2z M56.7,42.9c-0.1,0.8-0.6,1.9-1.5,3.2
	c-1.3,1.8-2.7,3.5-4.1,5.2c-0.3,0.4-0.6,0.7-0.9,1.1c-0.4-0.5-0.9-1-1.4-1.6c-1.8-2.1-3.7-4.2-5.2-6.5c-0.8-1.1-0.5-3.5-0.4-5
	c0.5-5.7,2.6-11.4,6.7-18.1C54.5,28.7,57.2,35.4,56.7,42.9z"/>
</svg>
