<?xml version="1.0" encoding="utf-8"?>
<!-- Generator: Adobe Illustrator 23.0.3, SVG Export Plug-In . SVG Version: 6.00 Build 0)  -->
<svg version="1.1" id="Layer_1" xmlns="http://www.w3.org/2000/svg" xmlns:xlink="http://www.w3.org/1999/xlink" x="0px" y="0px"
	 viewBox="0 0 100 100" style="enable-background:new 0 0 100 100;" xml:space="preserve">
<style type="text/css">
	.st0{fill:#f88a00;}
</style>
<g>
	<path class="st0" d="M2.92,43.04l14.48,6.98v11.61c0,0.98,0.56,1.87,1.44,2.29l27.71,13.35c0.34,0.17,0.72,0.25,1.1,0.25h4.66
		c0.38,0,0.76-0.09,1.1-0.25l27.63-13.31c0.54-0.26,0.96-0.7,1.21-1.24c0.03-0.08,0.07-0.15,0.1-0.23c0.13-0.32,0.2-0.66,0.2-1
		V50.02l3.95-1.9v15.75c-0.85,0.57-1.51,1.42-1.83,2.46l-2.25,7.32c-0.28,0.9-0.27,1.86,0.02,2.76l2.08,6.42
		c0.59,1.83,2.29,3.1,4.21,3.16c0.01,0,0.03,0,0.04,0l0.06,0c0.01,0,0.03,0,0.04,0c1.89,0,3.56-1.14,4.26-2.9l2.41-6.12
		c0.37-0.94,0.42-2,0.13-2.97l-2.25-7.63c-0.31-1.06-0.98-1.94-1.85-2.52v-18.2l5.49-2.64c0.88-0.42,1.44-1.31,1.44-2.29V38.7
		c0-0.98-0.56-1.87-1.44-2.29l-46-22.16c-0.7-0.34-1.51-0.34-2.21,0L2.92,36.39c-0.88,0.42-1.44,1.31-1.44,2.29v2.06
		C1.48,41.73,2.04,42.62,2.92,43.04z M88.94,79.91l-1.6-4.92l1.7-5.55l1.72,5.84L88.94,79.91z M77.47,60.03l-25.75,12.4h-3.5
		l-25.75-12.4v-7.57l26.39,12.71c0.35,0.17,0.73,0.25,1.1,0.25s0.75-0.08,1.1-0.25l26.39-12.71L77.47,60.03L77.47,60.03z
		 M49.98,19.37l42.24,20.35l-12.97,6.25c-0.11,0.04-0.23,0.08-0.34,0.13L49.98,60.04L21.05,46.1c-0.11-0.05-0.22-0.1-0.34-0.13
		L7.74,39.72L49.98,19.37z"/>
</g>
</svg>
