<?xml version="1.0" encoding="utf-8"?>
<!-- Generator: Adobe Illustrator 23.0.3, SVG Export Plug-In . SVG Version: 6.00 Build 0)  -->
<svg version="1.1" id="Layer_1" xmlns="http://www.w3.org/2000/svg" xmlns:xlink="http://www.w3.org/1999/xlink" x="0px" y="0px"
	 viewBox="0 0 100 100" style="enable-background:new 0 0 100 100;" xml:space="preserve">
<style type="text/css">
	.st0{fill:#f88a00;}
</style>
<path class="st0" d="M93.56,95.92H6.44c-3.28,0-5.92-2.64-5.92-5.92v-3.76c0-0.48,0-6.44,6.91-22.55l0-51.62
	c0-4.4,3.6-7.99,7.99-7.99h69.54c4.4,0,7.99,3.6,7.99,7.99v51.66c6.51,16.47,6.51,22.07,6.51,22.55v3.76
	C99.48,93.28,96.84,95.92,93.56,95.92z M4.52,86.4V90c0,1.08,0.88,1.92,1.96,1.92h87.09c1.08,0,1.92-0.88,1.92-1.92v-3.56
	c-0.4-1.44-3.52-14.48-6.35-21.63l-0.12-0.36V12.08c0-2.24-1.8-4.04-4.04-4.04l-69.54,0c-2.24,0-4.04,1.8-4.04,4.04v52.46
	l-0.16,0.36C8.2,72.01,4.88,84.97,4.52,86.4z M10.71,61.85H91v4H10.71V61.85z M3.96,84.01h92.72v4H3.96
	C3.96,88,3.96,84.01,3.96,84.01z M21.79,62.97c0-0.12-0.24-2.68-4.24-16.63l-0.2-0.76l0.32-0.68C23.54,32.92,23.1,7.92,23.1,7.76
	l3.96-0.12c0.04,0.64,0.48,25.56-5.48,38.35c3.88,13.59,4.2,16.39,4.2,16.91h-4C21.79,62.89,21.79,62.89,21.79,62.97z M78.97,63.29
	c0-0.08,0-0.08,0-0.08h-4c0-0.52,0.32-3.32,4.2-16.91C73.22,33.52,73.66,8.12,73.7,7.44l3.96,0.12l-2-0.08l2,0.08
	c0,0.16-0.44,25.68,5.44,37.67l0.32,0.68l-0.2,0.72C79.21,60.66,78.97,63.21,78.97,63.29z M48.9,44.55h2.4v28.46h-2.4L48.9,44.55
	L48.9,44.55z M46.98,73.29c0,0.86,1.4,1.56,3.12,1.56c1.72,0,3.12-0.7,3.12-1.56c0-0.86-1.4-1.56-3.12-1.56
	C48.38,71.73,46.98,72.42,46.98,73.29z M51.46,41.83c0,1.9,1.54,3.44,3.44,3.44c1.9,0,3.44-1.54,3.44-3.44s-1.54-3.44-3.44-3.44
	C53,38.39,51.46,39.93,51.46,41.83z M46.98,48.63c-0.36,0-0.72-0.16-0.96-0.48c-0.4-0.52-0.28-1.28,0.28-1.68l5-3.64
	c0.52-0.4,1.28-0.28,1.68,0.28c0.4,0.52,0.28,1.28-0.28,1.68l-5,3.64C47.46,48.59,47.22,48.63,46.98,48.63z"/>
</svg>
