<?xml version="1.0" encoding="utf-8"?>
<!-- Generator: Adobe Illustrator 24.1.1, SVG Export Plug-In . SVG Version: 6.00 Build 0)  -->
<svg version="1.1" id="Layer_1" xmlns="http://www.w3.org/2000/svg" xmlns:xlink="http://www.w3.org/1999/xlink" x="0px" y="0px"
	 viewBox="0 0 100 100" style="enable-background:new 0 0 100 100;" xml:space="preserve">
<style type="text/css">
	.st0{fill:#F88A00;}
</style>
<g>
	<path class="st0" d="M85.9,67.4c-3.4-2.9-7.3-5.1-10.6-6.8l-1.1-0.6c-2.8-1.5-5.7-3-8.9-3.8c-0.5-0.1-1.4-0.3-2.1,0.7
		c-0.6,0.8-1.4,1.8-2.3,2.7c-2.6,2.6-5.3,5.1-8,7.6l-2.7,2.5c-0.1,0.1-0.3,0.3-0.4,0.4c-1-1-2.1-2-3.1-3c-3.1-3-6.4-6.2-9.5-9.3
		l-0.4-0.4c-1.3-1.4-1.8-1.5-3.8-0.8c-0.7,0.2-1.4,0.5-2.2,0.8c-0.7,0.3-1.4,0.7-2.1,1c-2,1-4,2-6,3.1c-2.9,1.7-5.7,3.6-8.4,5.6
		c-3.8,2.9-5.7,7-5.6,12.2l0,1.2c0.1,2.9,0.1,5.9,0,8.9c-0.1,2.1,0.6,3.9,1.9,5.3c1.4,1.4,3.3,2.2,5.4,2.2c0,0,0,0,0,0
		C32.7,97,49.6,97,65.9,97l18,0c4.3,0,7.1-2.7,7.2-7l0.1-2.6c0.1-2.6,0.1-5.2,0.2-7.8C91.5,74.7,89.7,70.6,85.9,67.4z M14.7,78.6
		c0-2.2,0.7-4,2.3-5.4c2.4-2.3,4.8-4.1,7.3-5.5l0.5,1.6l-0.1,0c-3.7,2.6-5.3,6-4.6,10.1c0.4,2.1,0.9,4.2,1.4,6.4
		c0.2,0.9,0.5,1.9,0.7,2.9l0.2,0.9l0.9-0.2c0.6-0.1,1.3-0.3,1.9-0.4c1.5-0.3,2.9-0.6,4.4-1c1.5-0.4,2.3-1.9,1.8-3.5
		c-0.4-1.5-1.7-2.4-3.2-2.2c-0.3,0-0.6,0.1-0.9,0.2c-0.1,0-0.2,0.1-0.3,0.1l-0.3,0.1c-0.1-0.2-0.1-0.5-0.2-0.7
		c-0.3-1.1-0.6-2.2-0.7-3.2c-0.3-2.1,1.3-4.2,3.4-4.5c2.6-0.4,4.6,0.8,5.2,3.2c0.2,0.9,0.4,1.9,0.7,2.8l0.1,0.5
		c-0.3,0.1-0.6,0.2-0.9,0.2c-1.8,0.5-2.8,1.9-2.4,3.6c0.4,1.8,1.9,2.6,3.8,2.2l6.7-1.5l-0.2-1c-0.3-1-0.5-2-0.7-3
		c-0.5-2.2-1.1-4.5-1.8-6.7c-1.1-3.4-4.8-6.8-9.4-6.6c0,0,0,0,0,0c-0.4-1.1-0.7-2.3-0.6-2.7c0.2-0.4,1-0.8,2.3-1.4
		c0.8-0.4,1.4-0.7,1.7-0.7c0.2,0,0.7,0.5,1.3,1.1l0.1,0.1c3.4,3.2,6.7,6.4,10.1,9.7l4.7,4.5l4.8-4.6c3.8-3.6,7.5-7.2,11.3-10.7
		c0,0,0.1,0,0.1-0.1c2,0.9,3.9,1.8,5.9,2.7l1,0.4l-0.2,0.6c-0.5,1.4-1,2.8-1.5,4.1c-0.1,0-0.1,0-0.2,0c-3,0-5.6,1.4-7.3,3.8
		c-1.6,2.4-2,5.4-0.9,8.2c1.2,3.3,4.6,5.6,8.1,5.6c0,0,0,0,0.1,0c3.5,0,6.5-2,7.8-5.1c1.5-3.6,0.7-7.4-1.9-9.8
		c-0.1-0.1-0.1-0.1-0.2-0.2c0,0,0-0.1,0.1-0.2c0.5-1.2,0.9-2.3,1.3-3.5c0-0.1,0.1-0.2,0.1-0.3c0.3,0.2,0.7,0.5,1,0.7
		c0.3,0.2,0.6,0.5,0.9,0.7c1.7,1.3,3.4,2.6,4.3,4.5c0.5,1,0.7,1.9,0.7,2.6c0.1,3.6,0.1,7.3,0.1,10.9l0,1.5c0,0.6,0,0.8-1.2,0.8
		c-7.9,0-15.8,0-23.7,0H16.6c-0.9,0-1.4-0.1-1.6-0.2c-0.2-0.2-0.2-0.7-0.2-1.6l0-3.5C14.8,83.4,14.8,81,14.7,78.6z M70.9,82.4
		C70.9,82.4,70.9,82.4,70.9,82.4c-0.8,0-1.5-0.3-2-0.8c-0.5-0.5-0.8-1.2-0.8-2c0-1.4,1.2-2.6,2.6-2.6c0,0,0,0,0,0
		c0.9,0,1.6,0.3,2.1,0.8c0.5,0.5,0.7,1.2,0.7,1.9C73.6,81.2,72.4,82.4,70.9,82.4z"/>
	<path class="st0" d="M31.6,43.1c0.4,0.3,0.6,0.5,0.7,1.1c1.4,4.9,4.1,8.7,8,11.4c3.2,2.2,6.4,3.3,9.5,3.3c1,0,1.9-0.1,2.9-0.3
		c7.4-1.6,12.4-6.1,14.9-13.5c0.3-1,0.8-1.7,1.5-2.4c1.5-1.3,2.5-2.9,3-4.8c0.6-2.1,0.8-4.4,0.6-7.1c-0.1-1.7-0.9-3.1-2.4-4
		c-0.3-0.2-0.3-0.2-0.2-0.5l0.2-1c0.2-1.4,0.5-2.8,0.7-4.2C72,14,68,7.4,61.3,5c-5.2-1.9-10.5-2.4-16.1-1.7c-4.2,0.5-7,2.2-8.9,5.2
		c-0.3,0.4-0.8,0.9-1.6,1.3c-2.1,1.1-3.5,2.8-3.8,5c-0.4,2.1-0.5,4.5-0.6,7.2c0,1.3,0.2,2.5,0.3,3.8c0,0.3,0.1,0.6,0.1,0.9
		c-2.7,1.3-3.3,2.5-3.3,5.9c0,1.1,0.1,2.2,0.2,3.4C28,38.1,28.7,41.2,31.6,43.1z M36.8,27.4C36.5,24,36.2,21,36,18.3
		c0-0.5,0-1,0.1-1.6c0.1-0.8,0.6-1.4,1.4-1.9c1.5-0.8,2.7-1.8,3.5-2.9c1.3-1.8,3.1-2.7,5.8-2.9c4.5-0.4,8.3,0,11.7,1.3
		c5.1,1.9,7.4,5.8,6.4,11c-0.4,2-0.8,4.1-1.1,6.1c-0.4,2.2,0.5,3.7,2.6,4.5c0,0,0.1,0.1,0.1,0.1l0,0.2c-0.1,1.6-0.2,3.2-0.6,4.7
		c-0.1,0.4-0.5,1-1.3,1.6c-1.3,1.2-2.2,2.6-2.8,4.7c-0.8,2.5-2.3,4.7-4.7,6.8c-1.5,1.3-3.3,2.3-5.6,3c-1.2,0.4-2.5,0.2-3.8-0.4
		c-0.4-0.2-0.8-0.4-1.2-0.6c-0.9-0.4-1.7-0.8-2.4-1.2c-2.8-1.9-4.7-4.5-5.6-8c-0.4-1.6-1.1-3.3-2.9-4.4c-0.2-0.1-0.6-0.5-1-1.9
		c-0.2-0.6-0.2-1.2-0.3-1.9c0-0.4-0.1-0.7-0.1-1c-0.1-0.7-0.2-1.3-0.3-2l0,0c0.9-0.2,1.5-0.5,2-1.1C36.7,29.9,36.9,28.9,36.8,27.4z"
		/>
</g>
</svg>
