<?xml version="1.0" encoding="utf-8"?>
<!-- Generator: Adobe Illustrator 24.1.1, SVG Export Plug-In . SVG Version: 6.00 Build 0)  -->
<svg version="1.1" id="Layer_1" xmlns="http://www.w3.org/2000/svg" xmlns:xlink="http://www.w3.org/1999/xlink" x="0px" y="0px"
	 viewBox="0 0 100 100" style="enable-background:new 0 0 100 100;" xml:space="preserve">
<style type="text/css">
	.st0{fill:#F88A00;}
</style>
<g>
	<path class="st0" d="M50,84.6c-10.2,0-20.4,0-30.6,0c-1.8,0-3.5,0.1-5.3-0.1C10.4,84,7.7,82,6,78.7c-0.8-1.6-1.2-3.2-1.2-5
		c0-3.2,0-6.4,0-9.6c0-9.7,0-19.4,0-29c0-2.5,0.6-4.7,2-6.7C9,25.5,12,24,15.6,24c4.7,0,9.5,0,14.2,0c0.4,0,0.6-0.1,0.7-0.4
		c0.6-1.3,1.2-2.5,1.8-3.7c0.5-1,1.3-1.8,2.2-2.4c1.8-1.3,3.8-2,6.1-2c6.3,0,12.6,0,18.9,0c3,0,5.5,1.2,7.4,3.5
		c0.5,0.6,0.9,1.4,1.2,2.2c0.5,0.9,0.9,1.8,1.3,2.7c0.1,0.1,0.3,0.2,0.5,0.2c1.9,0,3.8,0,5.7,0c2.8,0,5.7,0,8.5,0c2.6,0,5,0.7,7,2.4
		c2.6,2.1,4,4.9,4,8.2c0,10.2,0,20.5,0,30.7c0,2.8,0,5.6,0,8.4c0,3.7-1.5,6.6-4.4,8.8c-2,1.5-4.2,2.1-6.7,2.1c-10.7,0-21.4,0-32.2,0
		C51.3,84.6,50.6,84.6,50,84.6C50,84.6,50,84.6,50,84.6z M50,78.9c1.7,0,3.5,0,5.2,0c7.6,0,15.2,0,22.8,0c2.2,0,4.4,0,6.6,0
		c1.7,0,3-0.8,4-2.1c0.8-1,1-2.2,1-3.4c0-5.5,0-11.1,0-16.6c0-7.2,0-14.3,0-21.5c0-0.2,0-0.5,0-0.7c-0.1-2.7-2.3-4.9-5.1-4.9
		c-5.2,0-10.3,0-15.5,0c-0.5,0-1,0-1.5-0.1c-0.9-0.1-1.7-0.6-2.1-1.4c-0.8-1.6-1.6-3.3-2.4-4.9c-0.7-1.5-1.9-2.2-3.4-2.2
		c-2.3-0.1-4.7,0-7,0c-4.1,0-8.2,0-12.3,0c-1.4,0-2.6,0.6-3.2,2c-0.6,1.3-1.3,2.7-1.9,4c-0.3,0.5-0.5,1.1-0.8,1.5
		c-0.6,0.8-1.5,1.1-2.4,1.1c-5.4,0-10.9,0-16.3,0c-1.2,0-2.3,0.4-3.2,1.2c-1.3,1.1-1.9,2.5-1.9,4.2c0,3.1,0,6.3,0,9.4
		c0,9.6,0,19.2,0,28.9c0,0.2,0,0.4,0,0.7c0.1,2.8,2.4,5,5.2,5c2,0,4,0,6.1,0C31.1,78.9,40.6,78.9,50,78.9z"/>
	<path class="st0" d="M69.8,53.5c0,10.9-8.8,19.7-19.5,19.8c-11.1,0.1-20-8.9-20-19.7c0-11,8.8-19.9,19.8-19.9
		C60.9,33.8,69.8,42.6,69.8,53.5z M50,67.6c7.8,0,14-6.3,14.1-13.9c0.1-8-6.3-14.4-14.1-14.4c-7.7,0-14.1,6.3-14.1,14
		C35.9,61.3,42.2,67.6,50,67.6z"/>
</g>
</svg>
