<?xml version="1.0" encoding="utf-8"?>
<!-- Generator: Adobe Illustrator 23.0.3, SVG Export Plug-In . SVG Version: 6.00 Build 0)  -->
<svg version="1.1" id="Layer_1" xmlns="http://www.w3.org/2000/svg" xmlns:xlink="http://www.w3.org/1999/xlink" x="0px" y="0px"
	 viewBox="0 0 100 100" style="enable-background:new 0 0 100 100;" xml:space="preserve">
<style type="text/css">
	.st0{fill:#f88a00;}
</style>
<g>
	<path class="st0" d="M48.34,84.41c0,0-0.01,0-0.01,0c-3.51,0.01-6.55,2.55-7.22,6.05c-0.65,3.41,1.26,6.77,4.65,8.18
		c0.2,0.08,0.39,0.17,0.58,0.26l0.4,0.18h3.23l0.11-0.05c0.1-0.04,0.19-0.09,0.28-0.14c0.19-0.09,0.38-0.18,0.58-0.27
		c3.35-1.4,5.29-4.85,4.61-8.19C54.84,86.89,51.87,84.41,48.34,84.41z M52.96,91.76L52.96,91.76c0,2.56-2,4.58-4.57,4.6
		c-1.27,0.02-2.45-0.47-3.32-1.34c-0.87-0.87-1.34-2.06-1.32-3.33c0.03-2.55,2.05-4.55,4.61-4.55c0.01,0,0.02,0,0.03,0
		C50.9,87.16,52.96,89.23,52.96,91.76z"/>
	<path class="st0" d="M78.25,73.08c0.48-0.07,1.14-0.24,1.45-0.79c0.3-0.55,0.1-1.18-0.11-1.67c-0.64-1.49-1.32-3.08-1.91-4.72
		c-0.41-1.13-1.14-1.63-2.36-1.64c-3.94,0-7.51-0.04-10.91-0.12c-0.52-0.01-1.27,0.03-1.7,0.56c-0.43,0.53-0.34,1.25-0.21,1.82
		c0.26,1.18,0.47,2.4,0.66,3.58c0.04,0.23,0.08,0.47,0.12,0.7c-0.17-0.2-0.32-0.4-0.43-0.61c-0.6-1.09-1.2-2.19-1.79-3.28
		c-0.73-1.36-1.49-2.76-2.26-4.13c-0.9-1.6-2.26-2.12-3.62-1.38c-0.93,0.5-1.84,1.56-0.88,3.74c0.24,0.54,0.48,1.08,0.73,1.62
		c0.63,1.39,1.28,2.82,1.78,4.27c2.16,6.23,7.31,8.9,11.55,10.54c0.31,0.12,0.59,0.18,0.84,0.18c0.22,0,0.42-0.05,0.6-0.14
		c0.52-0.27,0.7-0.86,0.8-1.28C71.71,75.45,73.43,73.82,78.25,73.08z M65.46,74.1c0.61-0.35,0.87-1.42,0.78-2.03
		c-0.18-1.35-0.44-2.69-0.71-4.1c-0.06-0.33-0.13-0.67-0.2-1.02l1.65,0c1.65,0,3.26-0.01,4.86,0c1.73,0.01,2.68,0.02,3.19,0.37
		c0.51,0.35,0.83,1.2,1.47,2.89c0.03,0.08,0.06,0.17,0.09,0.25c-4.31,0.98-7.15,3.69-8.46,8.06c-2.68-1.1-5.18-2.2-6.57-4.55
		c-1.39-2.33-2.56-4.85-3.7-7.29c0-0.01-0.01-0.01-0.01-0.02c0.41,0.76,0.82,1.53,1.24,2.29c0.6,1.11,1.2,2.22,1.8,3.33
		c0.43,0.79,1.79,1.54,2.86,1.84C64.48,74.33,65.06,74.32,65.46,74.1z"/>
	<path class="st0" d="M38.54,55.1c-0.42-0.73-1.45-1.8-3.61-0.84c-0.47,0.21-0.94,0.43-1.41,0.65c-1.15,0.54-2.34,1.09-3.55,1.48
		c-5.43,1.76-9.18,5.6-11.47,11.74c-0.2,0.54-0.37,1.16-0.08,1.68c0.29,0.52,0.92,0.7,1.5,0.81c4.36,0.83,6.46,3.08,7.03,7.53
		c0.06,0.51,0.22,1.22,0.78,1.55c0.2,0.11,0.42,0.16,0.63,0.16c0.38,0,0.78-0.14,1.11-0.28c1.53-0.65,3.02-1.28,4.57-1.84
		c1.2-0.43,1.73-1.2,1.72-2.49c-0.02-3.67,0.01-7.29,0.09-10.74c0.01-0.54-0.03-1.3-0.57-1.75c-0.53-0.44-1.25-0.36-1.75-0.26
		c-1.19,0.24-2.41,0.46-3.59,0.67c-0.25,0.04-0.5,0.09-0.75,0.13c0.18-0.16,0.36-0.3,0.55-0.41c1.1-0.61,2.22-1.21,3.31-1.8
		c1.4-0.75,2.84-1.53,4.25-2.33c0.83-0.47,1.37-1.09,1.56-1.79C39.01,56.36,38.9,55.74,38.54,55.1z M25.83,65.19
		c0.18,0.68,1.33,1.14,1.92,1.07c1.4-0.18,2.8-0.44,4.27-0.71c0.34-0.06,0.69-0.13,1.05-0.19v0.83c0,1.18,0,2.32,0,3.46
		c0,0.39,0,0.78-0.01,1.16l-0.01,0.65c-0.01,2.03-0.02,3.14-0.43,3.71c-0.37,0.51-1.21,0.8-2.83,1.31c-0.24-0.44-0.47-0.9-0.69-1.35
		c-0.67-1.34-1.37-2.73-2.38-3.82c-0.99-1.07-2.28-1.81-3.63-2.61c-0.48-0.28-0.97-0.57-1.46-0.87c0.84-2.15,1.93-4.68,4.15-6.05
		c2.38-1.46,4.96-2.69,7.47-3.89c0.06-0.03,0.12-0.06,0.18-0.09c-0.87,0.47-1.74,0.94-2.61,1.4c-0.93,0.5-1.87,1-2.8,1.51
		C26.67,61.45,25.39,63.61,25.83,65.19z"/>
	<path class="st0" d="M53.47,73.58c-1.08-1.11-2.2-2.25-3.28-3.39c-0.55-0.58-1.07-0.84-1.59-0.79c-0.7,0.06-1.18,0.68-1.47,1.14
		c-0.67,1.02-1.38,2.05-2.06,3.04c-0.14,0.2-0.27,0.39-0.41,0.59c0.02-0.25,0.05-0.48,0.11-0.7c0.44-1.54,0.91-3.11,1.36-4.63
		c0.34-1.15,0.69-2.31,1.02-3.46c0.54-1.87-0.04-3.2-1.59-3.66c-1.45-0.43-2.54,0.27-3.24,2.06c-0.2,0.51-0.39,1.03-0.59,1.55
		c-0.53,1.41-1.08,2.87-1.74,4.23c-2.31,4.71-2.11,9.58,0.67,15.77c0.28,0.63,0.64,0.99,1.09,1.09c0.44,0.1,0.9-0.05,1.41-0.48
		c3.07-2.56,7.76-2.44,10.46,0.27c0.42,0.42,0.84,0.63,1.25,0.63c0.08,0,0.16-0.01,0.23-0.02c0.5-0.1,0.9-0.49,1.18-1.17
		c0.19-0.46,0.39-0.92,0.59-1.37c0.54-1.25,1.1-2.55,1.55-3.86c0.23-0.66-0.02-1.72-0.52-2.26C56.44,76.62,54.93,75.07,53.47,73.58z
		 M42.94,70.12c-0.33,1.1-0.66,2.2-0.98,3.3c-0.38,1.29,0.61,4.08,1.84,4.53c0.67,0.25,1.67-0.32,2.04-0.8
		c0.87-1.14,1.66-2.3,2.42-3.43c0.14-0.2,0.27-0.4,0.4-0.59l1.22,1.14c1.96,1.83,3.81,3.55,5.65,5.33c0.08,0.09,0.15,0.43,0.1,0.55
		c-0.31,0.87-0.68,1.73-1.08,2.65c-0.07,0.16-0.14,0.32-0.21,0.48c-2-1.25-3.99-1.88-6.01-1.88c-1.86,0-3.74,0.53-5.66,1.58
		c-1.24-2.96-2.19-5.88-1.28-8.88c0.65-2.17,1.47-4.33,2.28-6.43C43.43,68.49,43.18,69.31,42.94,70.12z"/>
	<path class="st0" d="M61.4,44.83c0.35,0.65,0.97,1.29,2.06,1.29c0.47,0,1.03-0.12,1.69-0.41c0.49-0.21,0.97-0.43,1.45-0.66
		c1.04-0.48,2.13-0.98,3.22-1.33c5.58-1.78,9.39-5.63,11.66-11.78c0.21-0.57,0.38-1.22,0.08-1.76c-0.3-0.54-0.92-0.72-1.43-0.82
		c-4.48-0.87-6.47-3.01-7.1-7.63c-0.07-0.52-0.22-1.15-0.75-1.45c-0.52-0.3-1.13-0.1-1.53,0.07c-0.57,0.24-1.15,0.47-1.73,0.7
		c-1.1,0.43-2.24,0.88-3.33,1.42c-0.71,0.35-1.35,1.31-1.37,2.05c-0.07,2.2-0.09,4.43-0.1,6.59c-0.01,1.48-0.02,3.01-0.05,4.51
		c-0.01,0.52,0.04,1.26,0.56,1.69c0.53,0.43,1.26,0.33,1.84,0.2c1.18-0.27,2.4-0.47,3.58-0.66c0.22-0.04,0.44-0.07,0.67-0.11
		c-0.2,0.17-0.4,0.32-0.61,0.44c-1.12,0.62-2.28,1.24-3.39,1.84c-1.32,0.71-2.69,1.45-4.02,2.2C61.19,42.11,60.67,43.46,61.4,44.83z
		 M74.15,34.74c-0.24-0.62-1.25-0.99-1.92-0.99c-0.07,0-0.13,0-0.19,0.01c-1.36,0.17-2.68,0.43-4.09,0.71
		c-0.32,0.06-0.64,0.12-0.96,0.19l0-1.63c0-2.74,0-5.33,0.03-7.91c0.01-0.1,0.15-0.32,0.23-0.37c0.85-0.4,1.74-0.75,2.68-1.13
		c0.16-0.07,0.33-0.13,0.5-0.2c1.03,4.34,3.73,7.18,8.04,8.46c-1.19,3.04-2.96,6.25-6.6,7.96c-1.61,0.76-3.27,1.47-4.9,2.16
		c0.71-0.39,1.43-0.77,2.14-1.15c1.02-0.55,2.03-1.09,3.04-1.64C73.39,38.52,74.65,36.06,74.15,34.74z"/>
	<path class="st0" d="M13.69,53.71c-0.29,0.37-0.65,0.94-0.49,1.53c0.16,0.59,0.74,0.89,1.16,1.06c0.57,0.23,1.13,0.48,1.69,0.72
		c1.1,0.48,2.23,0.98,3.4,1.37c0.19,0.07,0.42,0.1,0.65,0.1c0.64,0,1.35-0.23,1.76-0.61c1.63-1.52,3.25-3.1,4.81-4.63
		c1.04-1.02,2.12-2.07,3.18-3.09c0.36-0.34,0.83-0.88,0.77-1.55c-0.06-0.67-0.63-1.11-1.05-1.39c-1.05-0.69-2.09-1.42-3.1-2.13
		c-0.19-0.13-0.38-0.27-0.57-0.4c0.22,0.01,0.42,0.02,0.61,0.08c1.34,0.38,2.69,0.79,4,1.19c1.34,0.4,2.72,0.82,4.09,1.21
		c1.87,0.53,3.22-0.04,3.68-1.58c0.3-1,0.19-2.38-2.04-3.27c-0.57-0.22-1.14-0.44-1.71-0.65c-1.26-0.47-2.57-0.96-3.78-1.55
		c-4.83-2.4-9.9-2.25-15.95,0.48c-0.48,0.22-1,0.52-1.16,1.07c-0.17,0.56,0.13,1.11,0.37,1.48C16.67,47.27,16.59,49.93,13.69,53.71z
		 M22.07,43.8c-0.27,0.64,0.27,1.67,0.77,2.05c1.14,0.87,2.3,1.65,3.43,2.41c0.2,0.14,0.4,0.27,0.6,0.41l-1.02,1.09
		c-1.9,2.03-3.69,3.95-5.55,5.89c-0.09,0.04-0.33,0.05-0.45,0.01c-0.88-0.33-1.76-0.7-2.68-1.1c-0.15-0.06-0.3-0.13-0.45-0.19
		c2.39-3.77,2.49-7.6,0.3-11.67c3.15-1.3,5.84-2.17,8.7-1.32c2.19,0.65,4.38,1.47,6.51,2.27c-0.99-0.3-1.98-0.59-2.96-0.88
		c-0.85-0.25-1.69-0.51-2.54-0.76C25.38,41.59,22.63,42.48,22.07,43.8z"/>
	<path class="st0" d="M46.48,26.4c1.11,1.13,2.25,2.3,3.36,3.47c0.35,0.36,0.88,0.84,1.55,0.78c0.66-0.06,1.11-0.63,1.38-1.05
		c0.69-1.05,1.43-2.11,2.14-3.12c0.14-0.19,0.27-0.39,0.41-0.58c-0.01,0.21-0.03,0.4-0.08,0.58c-0.39,1.38-0.81,2.78-1.22,4.13
		c-0.41,1.35-0.83,2.75-1.22,4.13c-0.5,1.76,0.08,3.08,1.56,3.55c0.26,0.08,0.55,0.14,0.84,0.14c0.86,0,1.81-0.47,2.45-2.14
		c0.19-0.49,0.37-0.98,0.55-1.48c0.44-1.19,0.89-2.42,1.46-3.54c2.57-5.05,2.5-10.37-0.2-16.27c-0.28-0.62-0.63-1.21-1.25-1.35
		c-0.61-0.14-1.17,0.23-1.54,0.52c-3.04,2.44-7.68,2.27-10.35-0.38c-0.49-0.49-0.99-0.69-1.46-0.6c-0.49,0.1-0.89,0.5-1.18,1.2
		c-0.2,0.47-0.4,0.94-0.6,1.4c-0.54,1.24-1.1,2.53-1.55,3.84c-0.25,0.72,0.1,1.77,0.57,2.27C43.55,23.41,45.04,24.93,46.48,26.4z
		 M56.95,30.29c0.37-1.26,0.75-2.52,1.12-3.79c0.24-0.81-0.18-2.22-0.72-3.2c-0.4-0.73-0.84-1.17-1.29-1.3
		c-0.09-0.03-0.19-0.04-0.29-0.04c-0.6,0-1.29,0.44-1.58,0.84c-0.84,1.12-1.61,2.26-2.51,3.57c-0.21,0.31-0.43,0.63-0.66,0.96
		l-0.55-0.6c-0.82-0.89-1.6-1.73-2.39-2.57c-0.29-0.31-0.59-0.61-0.89-0.92l-0.39-0.4c-1.45-1.48-2.18-2.23-2.27-2.95
		c-0.09-0.66,0.32-1.53,1.15-3.13c4.39,2.35,6.06,2.39,11.65,0.32c1.93,4.3,2.06,8.01,0.44,11.66c-0.46,1.03-0.88,2.08-1.29,3.11
		C56.63,31.34,56.79,30.81,56.95,30.29z"/>
	<path class="st0" d="M86.2,46.42c0.35-0.43,0.73-1.01,0.58-1.63c-0.15-0.6-0.74-0.91-1.17-1.09c-0.49-0.2-0.97-0.41-1.45-0.62
		c-1.23-0.53-2.49-1.07-3.78-1.53c-0.63-0.22-1.63-0.01-2.13,0.46c-1.59,1.5-3.18,3.04-4.71,4.54c-1.13,1.1-2.25,2.2-3.39,3.29
		c-0.37,0.35-0.85,0.9-0.79,1.57c0.06,0.67,0.62,1.1,1.04,1.37c1.06,0.69,2.12,1.42,3.14,2.14c0.2,0.14,0.4,0.28,0.6,0.42
		c-0.24-0.02-0.47-0.05-0.69-0.11c-1.26-0.36-2.55-0.74-3.79-1.11c-1.46-0.43-2.98-0.88-4.48-1.3c-0.94-0.26-1.77-0.21-2.39,0.15
		c-0.54,0.31-0.91,0.81-1.1,1.51c-0.22,0.81-0.27,2.29,1.95,3.16c0.48,0.19,0.97,0.37,1.45,0.55c1.29,0.49,2.63,0.99,3.87,1.61
		c2.37,1.18,4.81,1.77,7.37,1.77c2.77,0,5.67-0.7,8.75-2.09c0.53-0.24,1.1-0.57,1.26-1.16c0.17-0.6-0.16-1.19-0.47-1.63
		C83.37,53.06,83.47,49.8,86.2,46.42z M77.86,56.32c0.33-0.61-0.16-1.72-0.64-2.09c-1.17-0.9-2.41-1.75-3.51-2.49
		c-0.2-0.13-0.39-0.27-0.58-0.4l1.1-1.17c1.86-1.99,3.61-3.86,5.42-5.73c0.09-0.06,0.42-0.09,0.6-0.03c0.83,0.3,1.66,0.66,2.53,1.04
		c0.16,0.07,0.33,0.14,0.49,0.21c-2.4,4.36-2.47,7.04-0.34,11.66c-3.85,1.73-6.92,2.06-9.89,1.07c-1.86-0.62-3.71-1.36-5.52-2.1
		c0.95,0.28,1.89,0.57,2.84,0.85c0.93,0.28,1.87,0.56,2.8,0.84C74.59,58.41,77.12,57.68,77.86,56.32z"/>
	<path class="st0" d="M21.82,26.96c-0.49,0.06-1.19,0.19-1.51,0.75c-0.32,0.55-0.11,1.2,0.08,1.65c0.25,0.59,0.48,1.18,0.72,1.77
		c0.43,1.09,0.88,2.22,1.4,3.3c0.32,0.65,1.23,1.24,1.95,1.27c2.36,0.07,4.75,0.09,7.07,0.11c1.4,0.01,2.8,0.02,4.2,0.05
		c0.74,0.01,1.24-0.16,1.55-0.54c0.42-0.5,0.34-1.18,0.24-1.65c-0.25-1.24-0.47-2.51-0.68-3.74c-0.04-0.24-0.08-0.48-0.13-0.73
		c0.16,0.18,0.29,0.36,0.4,0.55c0.6,1.07,1.19,2.18,1.77,3.24c0.76,1.42,1.55,2.89,2.37,4.31c0.48,0.85,1.11,1.39,1.81,1.58
		c0.18,0.05,0.36,0.07,0.55,0.07c0.43,0,0.86-0.13,1.3-0.39c0.72-0.42,1.78-1.46,0.83-3.62c-0.24-0.54-0.48-1.08-0.73-1.62
		c-0.61-1.34-1.24-2.73-1.72-4.13c-1.7-4.96-5.38-8.38-11.58-10.75c-0.41-0.16-1-0.33-1.53-0.04c-0.53,0.3-0.71,0.93-0.8,1.39
		C28.52,24.32,26.25,26.46,21.82,26.96z M34.8,25.84c-0.69,0.22-1.12,1.43-1.04,2.1c0.17,1.35,0.43,2.69,0.7,4.11
		c0.07,0.34,0.13,0.68,0.2,1.04l-0.53,0c-0.85,0-1.66,0-2.47,0c-0.73-0.01-1.46-0.02-2.19-0.03c-0.43-0.01-0.86-0.01-1.29-0.02
		c-1.98-0.03-2.97-0.04-3.5-0.47c-0.48-0.4-0.77-1.35-1.21-3.02c4.25-0.95,7.07-3.65,8.39-8.01c2.9,1.14,5.4,2.36,6.82,4.85
		c1.27,2.2,2.35,4.57,3.4,6.87c-0.53-0.98-1.05-1.96-1.56-2.91c-0.41-0.77-0.82-1.54-1.24-2.31c-0.62-1.16-2.41-2.28-3.83-2.28
		C35.23,25.75,35.01,25.78,34.8,25.84z"/>
	<path class="st0" d="M15.58,48.34c-0.01-4.02-3.28-7.31-7.3-7.33c-0.01,0-0.02,0-0.04,0c-1.95,0-3.79,0.77-5.18,2.18
		c-1.41,1.42-2.18,3.29-2.15,5.27c0.05,3.98,3.34,7.21,7.36,7.21c0.01,0,0.03,0,0.04,0C12.32,55.65,15.58,52.36,15.58,48.34z
		 M12.85,48.44c-0.03,2.54-2.05,4.51-4.61,4.51c-0.01,0-0.02,0-0.03,0c-2.57-0.02-4.58-2.03-4.57-4.59c0-1.26,0.51-2.44,1.42-3.33
		c0.87-0.85,2-1.31,3.18-1.31c0.04,0,0.08,0,0.12,0C10.9,43.79,12.88,45.86,12.85,48.44z"/>
	<path class="st0" d="M51.63,15.56c0.01,0,0.01,0,0.02,0c4.01,0,7.3-3.24,7.34-7.24c0.02-1.96-0.75-3.82-2.16-5.23
		c-1.42-1.42-3.28-2.18-5.26-2.17c-4.01,0.03-7.26,3.34-7.25,7.37C44.33,12.36,47.54,15.55,51.63,15.56z M47.05,8.26
		c0-2.58,2-4.62,4.55-4.65c0.02,0,0.04,0,0.06,0c1.21,0,2.35,0.48,3.23,1.36c0.9,0.9,1.39,2.09,1.37,3.35
		c-0.03,2.55-2.05,4.54-4.61,4.54c-0.01,0-0.02,0-0.03,0C49.06,12.84,47.05,10.82,47.05,8.26z"/>
	<path class="st0" d="M78.36,73.39c0,0-0.01,0-0.01,0c-4.01,0-7.3,3.25-7.33,7.25c-0.01,1.99,0.76,3.86,2.18,5.27
		c1.39,1.38,3.21,2.14,5.14,2.14c0.03,0,0.06,0,0.08,0c4-0.05,7.24-3.35,7.23-7.37C85.64,76.6,82.44,73.4,78.36,73.39z M82.97,80.68
		c0,2.53-2.05,4.62-4.57,4.66c-1.2,0.03-2.42-0.48-3.31-1.38c-0.9-0.89-1.4-2.1-1.39-3.31c0.03-2.51,2.12-4.54,4.65-4.54
		c0,0,0.01,0,0.01,0C80.95,76.11,82.97,78.12,82.97,80.68z"/>
	<path class="st0" d="M19.36,71.06c-0.01,0-0.02,0-0.03,0c-4.06,0-7.28,3.16-7.34,7.21c-0.03,1.98,0.73,3.86,2.14,5.28
		c1.39,1.4,3.22,2.17,5.17,2.17c0.02,0,0.04,0,0.05,0c4-0.03,7.26-3.32,7.27-7.34C26.62,74.29,23.44,71.08,19.36,71.06z
		 M19.32,73.78c0.01,0,0.01,0,0.02,0c2.57,0.01,4.59,2.02,4.59,4.58c0,2.53-2.05,4.62-4.57,4.65c-1.23,0.03-2.43-0.49-3.32-1.39
		c-0.89-0.89-1.39-2.1-1.37-3.3C14.7,75.81,16.79,73.78,19.32,73.78z"/>
	<path class="st0" d="M96.98,46.55c-1.4-1.43-3.31-2.25-5.25-2.25c0,0,0,0-0.01,0c-4.01,0-7.29,3.29-7.3,7.33
		c-0.01,4.09,3.17,7.31,7.24,7.34c0.02,0,0.03,0,0.05,0c4.05,0,7.28-3.15,7.37-7.19C99.14,49.87,98.37,47.97,96.98,46.55z
		 M91.74,56.25c-0.01,0-0.03,0-0.04,0c-2.6-0.02-4.55-2-4.54-4.61c0.01-2.57,2.02-4.6,4.57-4.61c0.01,0,0.02,0,0.03,0
		c1.24,0,2.4,0.49,3.28,1.39c0.89,0.9,1.36,2.08,1.34,3.33C96.32,54.28,94.29,56.25,91.74,56.25z"/>
	<path class="st0" d="M80.68,29.01c0.01,0,0.03,0,0.04,0c3.99-0.02,7.25-3.31,7.26-7.34c0.01-4.08-3.17-7.3-7.25-7.31
		c-0.01,0-0.02,0-0.04,0c-4.06,0-7.27,3.16-7.33,7.21c-0.03,1.98,0.73,3.86,2.14,5.28C76.89,28.24,78.73,29.01,80.68,29.01z
		 M80.69,17.06c0.01,0,0.02,0,0.02,0c2.53,0.01,4.59,2.07,4.59,4.6c0,2.53-2.06,4.61-4.59,4.63c-0.01,0-0.02,0-0.04,0
		c-1.2,0-2.4-0.51-3.28-1.4c-0.89-0.89-1.38-2.1-1.36-3.31C76.09,19.08,78.17,17.06,80.69,17.06z"/>
	<path class="st0" d="M21.63,26.67c0.01,0,0.03,0,0.04,0c4-0.02,7.26-3.32,7.26-7.34c0-4.08-3.18-7.29-7.25-7.31
		c-4.08-0.03-7.3,3.14-7.36,7.2c-0.03,1.98,0.73,3.86,2.14,5.28C17.85,25.9,19.69,26.67,21.63,26.67z M16.99,19.21
		c0.08-2.53,2.12-4.49,4.65-4.49c0.02,0,0.05,0,0.07,0c2.53,0.03,4.57,2.12,4.54,4.64c-0.03,2.53-2.1,4.59-4.62,4.59
		c0,0-0.01,0-0.01,0c-1.23,0-2.44-0.53-3.33-1.44C17.42,21.6,16.96,20.43,16.99,19.21z"/>
</g>
</svg>
