<?xml version="1.0" encoding="utf-8"?>
<!-- Generator: Adobe Illustrator 23.0.3, SVG Export Plug-In . SVG Version: 6.00 Build 0)  -->
<svg version="1.1" id="Layer_1" xmlns="http://www.w3.org/2000/svg" xmlns:xlink="http://www.w3.org/1999/xlink" x="0px" y="0px"
	 viewBox="0 0 100 100" style="enable-background:new 0 0 100 100;" xml:space="preserve">
<style type="text/css">
	.st0{fill:#f88a00;}
</style>
<g id="XMLID_1390_">
	<g id="XMLID_1553_">
		<path id="XMLID_1661_" class="st0" d="M91.29,60.92c0-3.17-2.58-5.75-5.75-5.75h-4.73l-2.21-7.91c-0.89-3.2-3.68-5.51-6.94-5.84
			c0.42-0.36,0.68-0.89,0.68-1.47v-14.2l16.41-6.51c0.73-0.29,1.21-1,1.21-1.78c0-0.79-0.48-1.49-1.21-1.78l-13.4-5.32
			c-0.98-0.39-2.1,0.09-2.49,1.07s0.09,2.1,1.07,2.49l8.91,3.54L51.25,29.99L19.66,17.45L51.25,4.92l8.42,3.34
			c0.98,0.39,2.1-0.09,2.49-1.07c0.39-0.98-0.09-2.1-1.07-2.49l-9.13-3.62c-0.45-0.18-0.96-0.18-1.41,0l-36.79,14.6
			c-0.73,0.29-1.21,1-1.21,1.78V28.5c-2.23,0.79-3.83,2.92-3.83,5.42v8.43c0,1.06,0.86,1.92,1.92,1.92h7.67
			c1.06,0,1.92-0.86,1.92-1.92v-8.43c0-2.5-1.6-4.63-3.83-5.42v-8.23l13.8,5.47v14.2c0,0.57,0.26,1.1,0.68,1.46
			c-3.25,0.33-6.04,2.64-6.93,5.83l-2.22,7.92h-4.72c-3.17,0-5.75,2.58-5.75,5.75c0,2.47,1.56,4.57,3.75,5.39
			c-1.51,1.75-2.43,4.03-2.43,6.52v11.39c0,3.1,2.53,5.63,5.63,5.63h2.45v4.3c0,2.71,2.2,4.91,4.91,4.91h3.59
			c2.71,0,4.91-2.2,4.91-4.91v-4.3h9.55c1.06,0,1.92-0.86,1.92-1.92s-0.86-1.92-1.92-1.92h-25.4c-0.99,0-1.8-0.81-1.8-1.8V72.83
			c0-3.4,2.76-6.16,6.16-6.16h57.44c3.4,0,6.16,2.76,6.16,6.16v11.39c0,0.99-0.81,1.8-1.8,1.8H58.91c-1.06,0-1.92,0.86-1.92,1.92
			s0.86,1.92,1.92,1.92h9.57v4.3c0,2.71,2.2,4.91,4.91,4.91h3.59c2.71,0,4.91-2.2,4.91-4.91v-4.3h2.45c3.1,0,5.63-2.53,5.63-5.63
			V72.83c0-2.49-0.92-4.77-2.43-6.52C89.73,65.49,91.29,63.38,91.29,60.92z M16.38,40.44h-3.83v-6.52c0-1.06,0.86-1.92,1.92-1.92
			s1.92,0.86,1.92,1.92V40.44z M30.2,89.85v4.3c0,0.59-0.48,1.07-1.07,1.07h-3.59c-0.59,0-1.07-0.48-1.07-1.07v-4.3H30.2z
			 M78.06,94.15c0,0.59-0.48,1.07-1.07,1.07H73.4c-0.59,0-1.07-0.48-1.07-1.07v-4.3h5.74L78.06,94.15L78.06,94.15z M85.54,59
			c1.06,0,1.92,0.86,1.92,1.92s-0.86,1.92-1.92,1.92h-2.59L81.88,59H85.54z M74.91,48.28l4.06,14.55H55.33l17.25-17.25
			C73.69,46.09,74.56,47.06,74.91,48.28z M36.92,62.83L50.45,49.3l0.09,0.04c0.23,0.09,0.47,0.14,0.71,0.14
			c0.24,0,0.48-0.05,0.71-0.14l10.42-4.13h5.17L49.91,62.83H36.92z M50.55,33.83c0.23,0.09,0.47,0.14,0.71,0.14
			c0.24,0,0.48-0.05,0.71-0.14l16.55-6.57v11.38l-7.24,2.87c0,0,0,0,0,0l-10.01,3.97l-17.24-6.84V27.27L50.55,33.83z M27.61,48.28
			c0.51-1.81,2.18-3.08,4.06-3.08h8.46l6.44,2.56L31.5,62.83c0,0,0,0-0.01,0.01h-7.97L27.61,48.28z M16.98,59h3.64l-1.08,3.83h-2.57
			c-1.06,0-1.92-0.86-1.92-1.92S15.92,59,16.98,59z"/>
		<path id="XMLID_1670_" class="st0" d="M51.26,86.02c-0.5,0-1,0.21-1.35,0.56c-0.36,0.36-0.56,0.85-0.56,1.35
			c0,0.5,0.2,1,0.56,1.35c0.36,0.36,0.85,0.56,1.35,0.56c0.5,0,1-0.2,1.35-0.56c0.36-0.36,0.56-0.85,0.56-1.35
			c0-0.51-0.21-1-0.56-1.35C52.26,86.22,51.76,86.02,51.26,86.02z"/>
		<path id="XMLID_1674_" class="st0" d="M18.23,76.34c0,3.37,2.74,6.1,6.1,6.1s6.1-2.74,6.1-6.1s-2.74-6.1-6.1-6.1
			S18.23,72.98,18.23,76.34z M26.61,76.34c0,1.25-1.02,2.27-2.27,2.27s-2.27-1.02-2.27-2.27s1.02-2.27,2.27-2.27
			S26.61,75.09,26.61,76.34z"/>
		<path id="XMLID_1685_" class="st0" d="M84.29,76.34c0-3.37-2.74-6.1-6.1-6.1s-6.1,2.74-6.1,6.1c0,3.37,2.74,6.1,6.1,6.1
			S84.29,79.71,84.29,76.34z M75.91,76.34c0-1.25,1.02-2.27,2.27-2.27s2.27,1.02,2.27,2.27s-1.02,2.27-2.27,2.27
			S75.91,77.59,75.91,76.34z"/>
		<path id="XMLID_1691_" class="st0" d="M63.63,79.84c0.65-0.82,0.9-1.88,0.66-2.9l-0.95-4.15c-0.36-1.57-1.74-2.66-3.34-2.66H42.52
			c-1.61,0-2.98,1.1-3.34,2.66l-0.95,4.15c-0.23,1.02,0.01,2.08,0.66,2.9c0.65,0.82,1.63,1.29,2.68,1.29h19.38
			C62,81.13,62.98,80.66,63.63,79.84z M42.07,77.3l0.77-3.35h16.84l0.77,3.35H42.07z"/>
		<path id="XMLID_1692_" class="st0" d="M67.47,11.2c1.06,0,1.92-0.86,1.92-1.92s-0.86-1.92-1.92-1.92h0
			c-1.06,0-1.92,0.86-1.92,1.92S66.41,11.2,67.47,11.2z"/>
	</g>
</g>
</svg>
