<?xml version="1.0" encoding="utf-8"?>
<!-- Generator: Adobe Illustrator 23.0.3, SVG Export Plug-In . SVG Version: 6.00 Build 0)  -->
<svg version="1.1" id="Layer_1" xmlns="http://www.w3.org/2000/svg" xmlns:xlink="http://www.w3.org/1999/xlink" x="0px" y="0px"
	 viewBox="0 0 100 100" style="enable-background:new 0 0 100 100;" xml:space="preserve">
<style type="text/css">
	.st0{fill:#F88A00;}
</style>
<g>
	<path class="st0" d="M53.03,78.85c0-0.8,0-1.49,0-2.18c0-5.29,0-30.58,0-35.88c0-6.56-4.76-11.42-11.32-11.54
		c-1.74-0.03-3.49-0.06-5.23,0.05c-4.66,0.3-18.03,3.84-18.19,8.51c-0.02,0.69,0,1.38,0,2.18c-2.18,0-4.28,0-6.49,0
		c0,3.76,0,7.42,0,11.13c-1.29,0-2.48,0-3.78,0c0-3.67,0-7.32,0-11.06c-1.8,0-3.5,0-5.27,0c0-10.37,0-20.65,0-31.03
		c0.28-0.02,0.58-0.05,0.88-0.05c4.31,0,8.62,0.01,12.93-0.01c0.9-0.01,1.66,0.16,2.46,0.67c2.62,1.67,15.53,2.66,18.56,3.26
		c7.86,1.56,17.62,1.32,25.18-1.6c1.12-0.43,2.22-0.95,3.23-1.59c0.87-0.55,1.74-0.76,2.76-0.75C73.63,9,78.51,8.98,83.39,8.98
		c0.5,0,1.01,0,1.62,0c0,2.41,0,4.77,0,7.2c1.73,0,3.36,0,5.09,0c0-1.31,0-2.66,0-4.08c1.31,0,2.53,0,3.82,0c0,8.43,0,16.88,0,25.39
		c-1.22,0-2.44,0-3.75,0c0-1.48,0-2.95,0-4.49c-1.73,0-3.36,0-5.05,0c0,8.57,0,37.14,0,45.86c0.33,0,0.67,0,1,0
		c2.09,0,4.18-0.01,6.27,0c3.55,0.03,6.31,2.74,6.27,6.15c-0.04,3.48-2.64,6.01-6.25,6.01c-23.23,0.01-48.46,0-71.69,0
		c-4.5,0-9,0.03-13.5-0.02c-2.83-0.03-5.29-2.15-5.78-4.86c-0.72-3.97,2.02-7.27,6.09-7.29c6.94-0.02,13.88-0.01,20.82-0.01
		c7.89,0,15.78,0,23.67,0C52.31,78.85,52.59,78.85,53.03,78.85z M6.52,12.82c0,0.48,0,0.86,0,1.23c0,3.14,0,6.27,0,9.41
		c0,3.87,0.02,7.73-0.01,11.6C6.5,35.77,6.71,36,7.42,35.98c1.74-0.05,3.49-0.01,5.23-0.01c0.65,0,1.31,0,1.96,0
		c0.1-0.4,0.16-0.67,0.23-0.95c1.4-5.08,4.55-8.55,9.77-9.5c2.88-0.52,15.93-0.26,18.9-0.19c1.95,0.04,3.8,0.7,5.5,1.67
		c5.21,2.97,7.84,7.51,7.9,13.48c0.06,5.7,0.01,31.41,0.01,37.11c0,0.4,0,0.8,0,1.22c7.5,0,16.86,0,24.21,0c0-15.35,0-50.64,0-65.97
		c-3.06,0-6.07,0.08-9.08-0.03c-2.19-0.07-4.15,0.32-6.15,1.33c-4.7,2.38-11.82,3.29-17.06,3.49c-7.5,0.3-24.7-0.9-31.36-4.57
		c-0.21-0.12-0.47-0.22-0.71-0.22C13.41,12.82,10.05,12.82,6.52,12.82z M48.88,87.39C48.88,87.39,48.88,87.39,48.88,87.39
		c10.04,0,22.08,0,32.12,0c3.77,0,7.54,0.01,11.31,0c1.62,0,2.64-1.1,2.44-2.57c-0.15-1.12-1.06-1.87-2.37-1.87
		c-2.82-0.01-5.64,0.05-8.45,0.04c-9.95-0.01-21.89-0.04-31.84-0.05c-12.86-0.01-25.72,0-38.58,0c-2,0-3.99-0.02-5.99,0.01
		c-1.44,0.02-2.38,1-2.32,2.32c0.06,1.32,1.04,2.12,2.63,2.12C21.52,87.39,35.2,87.39,48.88,87.39z M85.13,20.38
		c0,2.89,0,5.74,0,8.65c1.5,0,2.92,0,4.34,0c0.18,0,0.36-0.05,0.59-0.08c0-2.86,0-5.69,0-8.57C88.43,20.38,86.85,20.38,85.13,20.38z
		"/>
	<path class="st0" d="M69.81,47.08c-4.48-0.02-8.05-3.62-8.05-8.12c0-4.44,3.67-8.1,8.11-8.08c4.5,0.02,8.16,3.71,8.12,8.18
		C77.94,43.51,74.27,47.11,69.81,47.08z M65.61,38.98c-0.01,2.44,1.8,4.26,4.24,4.26c2.43,0,4.29-1.86,4.27-4.25
		c-0.02-2.23-2.04-4.25-4.26-4.27C67.46,34.7,65.62,36.54,65.61,38.98z"/>
</g>
</svg>
