<?xml version="1.0" encoding="utf-8"?>
<!-- Generator: Adobe Illustrator 23.0.3, SVG Export Plug-In . SVG Version: 6.00 Build 0)  -->
<svg version="1.1" id="Layer_1" xmlns="http://www.w3.org/2000/svg" xmlns:xlink="http://www.w3.org/1999/xlink" x="0px" y="0px"
	 viewBox="0 0 100 100" style="enable-background:new 0 0 100 100;" xml:space="preserve">
<style type="text/css">
	.st0{fill:#F88A00;}
</style>
<g>
	<g>
		<g>
			<path class="st0" d="M45.39,59.76c0-0.49,0-0.87,0-1.25c0-2.72-0.02-2.43,0.01-5.15c0.02-1.83,1.41-2.93,2.99-2.42
				c0.99,0.32,1.58,1.13,1.58,2.3c0.02,2.81,0.01,2.63,0.01,5.44c0,0.32,0,0.63,0,1.08c1.71,0,3.35-0.01,4.99,0
				c0.45,0,0.92-0.01,1.35,0.1c1.01,0.27,1.7,1.35,1.59,2.39c-0.12,1.15-1,2.02-2.21,2.04c-2.17,0.04-4.33,0.02-6.5,0.02
				c-4.01,0-34.02,0.01-38.03,0C9.34,64.3,8.2,62.77,8.85,61.2c0.4-0.96,1.14-1.44,2.2-1.44c2.39,0,30.79,0,33.18,0
				C44.57,59.76,44.92,59.76,45.39,59.76z"/>
			<path class="st0" d="M7.51,29.42c-1.06,0-2.13,0.02-3.19,0C2.97,29.38,2,28.48,1.95,27.23c-0.05-1.31,0.86-2.38,2.23-2.41
				c2.29-0.06,49.58-0.06,51.86,0c1.33,0.04,2.21,1.09,2.18,2.36c-0.03,1.26-0.97,2.18-2.33,2.22C54.77,29.43,8.64,29.41,7.51,29.42
				C7.51,29.41,7.51,29.41,7.51,29.42z"/>
			<path class="st0" d="M4.96,59.76c1.35,0.01,2.34,0.99,2.33,2.3c-0.01,1.3-1.03,2.26-2.38,2.25C3.55,64.3,2.57,63.33,2.59,62
				C2.6,60.69,3.6,59.75,4.96,59.76z"/>
		</g>
		<path class="st0" d="M8.51,44.59c-1.06,0-2.13,0.02-3.19,0C3.97,44.55,3,43.65,2.95,42.4c-0.05-1.31,0.86-2.38,2.23-2.41
			c2.29-0.06,48.58-0.06,50.86,0c1.33,0.04,2.21,1.09,2.18,2.36c-0.03,1.26-0.97,2.18-2.33,2.22C54.77,44.61,9.64,44.58,8.51,44.59
			C8.51,44.58,8.51,44.58,8.51,44.59z"/>
	</g>
	<g>
		<path class="st0" d="M98.53,59.16c0-0.61-0.2-1.29-0.52-1.81c-4.08-6.63-8.2-13.24-12.3-19.86c-0.61-0.98-1.4-1.41-2.56-1.4
			c-5.46,0.03-4.93,0.01-10.39,0.01c-0.34,0-0.69,0-1.04,0c-0.08-0.42-0.13-0.74-0.2-1.06c0.31-19.57-8.42-23.15-13.18-24.51
			C56.88,10.1,9.37,9.96,4.01,9.95c0,0-0.01,0-0.01,0c-0.01,0-0.01,0-0.02,0c-0.21,0-0.36,0-0.42,0l0,0.03
			c-1.14,0.17-1.93,1.04-1.94,2.21c-0.01,1.26,0.87,2.19,2.13,2.29l0,0.03c6.86,0,43.71-0.02,50.57,0.01
			c4.26,0.02,12.49,3.29,12.67,21.21c0.14,0.73,0.21,1.48,0.21,2.22c0.01,11.93,0.01,23.86,0.01,35.8c0,0.38,0,0.75,0,1.12
			c-0.27,0.04-0.4,0.07-0.53,0.08c-5.3,0.03-31.61,0.07-36.91,0.06c-0.29,0-0.7-0.37-0.84-0.67c-1.12-2.28-2.76-4.05-5.03-5.21
			c-5.55-2.84-12.22-0.6-15,5.04c-0.25,0.5-0.45,0.9-1.11,0.8c-0.4-0.06-2.17-0.09-3.47-0.1c-0.15,0-0.28,0-0.41,0
			c-0.11,0-0.22,0-0.34,0c-1.1,0.01-1.97,0.86-2.12,1.91c-0.15,1.07,0.48,2.31,1.49,2.64c0.39,0.13,0.83,0.14,1.24,0.14
			c3.52,0.01,2.44,0,3.57,0c0.7,6.82,5.87,10.22,10.49,10.49c5.24,0.31,11.09-3.48,11.74-10.42c7.35,0,29.71,0,37.06,0
			c0.76,7.01,6.12,10.24,10.5,10.41c6.12,0.24,10.12-3.33,11.75-10.47c2.18,0,4.37,0,6.56,0c1.83,0,2.7-0.84,2.7-2.64
			C98.56,70.99,98.57,65.07,98.53,59.16z M18.84,85.44c-3.57,0-6.48-2.91-6.49-6.47c-0.01-3.56,2.9-6.47,6.47-6.49
			c3.58-0.02,6.49,2.85,6.51,6.42C25.35,82.55,22.48,85.44,18.84,85.44z M91.38,55.43c-5.44,0-1.84,0-7.29,0c0-2.15,0-4.29,0-6.55
			c1.12,0,2.2,0,3.29,0c1.28,2.07,2.57,4.14,3.85,6.21C91.28,55.16,91.31,55.25,91.38,55.43z M78.19,85.44
			c-3.64,0.02-6.52-2.85-6.52-6.49c0-3.58,2.89-6.47,6.46-6.46c3.6,0.01,6.45,2.84,6.48,6.45C84.64,82.51,81.76,85.42,78.19,85.44z
			 M93.94,74.94c-1.74,0-3.44,0.03-5.14-0.04c-0.25-0.01-0.54-0.46-0.71-0.77c-2.2-4.1-5.59-6.31-10.26-6.21
			c-2.34,0.05-4.33,0.72-6,1.92c0-9.68,0-19.36,0-29.1c0.32-0.02,0.6-0.05,0.89-0.05c4.91,0,3.83,0,8.74-0.01
			c0.5,0,0.88,0.02,1.21,0.55c0.62,1.01,1.24,2.01,1.86,3.02c-0.81,0-1.63,0-2.44,0c-1.74,0.01-2.62,0.88-2.63,2.63
			c-0.02,3.52-0.02,7.05-0.01,10.57c0.01,1.79,0.9,2.66,2.71,2.66c6.56,0.01,4.12,0,10.69,0c0.35,0,0.7,0,1.1,0
			C93.94,65.09,93.94,69.95,93.94,74.94z"/>
		<path class="st0" d="M3.92,74.85C7.91,74.83,0.05,74.82,3.92,74.85L3.92,74.85z"/>
	</g>
</g>
</svg>
