<?xml version="1.0" encoding="utf-8"?>
<!-- Generator: Adobe Illustrator 23.0.3, SVG Export Plug-In . SVG Version: 6.00 Build 0)  -->
<svg version="1.1" id="Layer_1" xmlns="http://www.w3.org/2000/svg" xmlns:xlink="http://www.w3.org/1999/xlink" x="0px" y="0px"
	 viewBox="0 0 100 100" style="enable-background:new 0 0 100 100;" xml:space="preserve">
<style type="text/css">
	.st0{fill:#F88A00;}
</style>
<path class="st0" d="M97.84,5.38c-1.68-2.62-4.45-4.3-7.82-4.72c-4.11-0.52-7.8,0.8-10.97,3.92C73.7,9.86,68.23,15.32,62.79,20.82
	c-0.92,0.93-1.67,1.09-2.89,0.63C50,17.7,39.59,13.81,28.96,9.88c-7.12-2.63-12.72-0.71-16.64,5.71c-2.11,3.46-2.11,6.87,0.01,10.13
	c0.9,1.39,2.05,2.71,3.32,3.83c1.99,1.75,4.09,3.45,6.12,5.09c0.87,0.7,1.74,1.41,2.61,2.12c2.74,2.25,5.48,4.49,8.24,6.77
	l3.99,3.28l-2.77,2.79c-3.07,3.09-5.97,6.01-8.95,8.94c-0.48,0.47-1.45,0.51-1.99,0.38l-1.7-0.4c-3.02-0.7-6.13-1.42-9.15-2.31
	c-1.13-0.34-2.16-0.51-3.12-0.51c-3.04,0-5.34,1.74-7.65,5.59c-0.74,1.23-0.96,2.54-0.65,3.79c0.34,1.36,1.32,2.58,2.75,3.43
	c1.37,0.81,2.74,1.63,4.11,2.44c4.05,2.4,8.24,4.89,12.33,7.37c0.76,0.46,1.46,1.16,1.91,1.92c2.41,4.02,4.82,8.13,7.15,12.11
	c0.83,1.42,1.66,2.84,2.5,4.25c1.2,2.05,2.86,2.99,5.07,2.86c2.09-0.12,4.26-1.39,5.78-3.4c1.49-1.96,2.12-4.31,1.68-6.29
	c-0.9-4.1-1.85-8.27-2.82-12.38c-0.27-1.13-0.05-1.9,0.75-2.66c1.64-1.55,3.24-3.18,4.8-4.76c0.42-0.43,0.85-0.86,1.27-1.29
	c1.11-1.12,2.2-2.25,3.33-3.4l1.84-1.89l0.81,0.96c0.33,0.39,0.61,0.72,0.88,1.05c1.66,2.03,3.31,4.05,4.97,6.08
	c3.52,4.31,7.15,8.76,10.76,13.12c2.41,2.92,5.22,4.55,8.13,4.71c2.92,0.16,5.92-1.16,8.66-3.83c3.97-3.85,4.93-8.35,2.94-13.75
	c-1.12-3.03-2.23-6.06-3.34-9.09c-2.71-7.38-5.51-15-8.3-22.49c-0.46-1.23-0.29-2.02,0.6-2.91c3.31-3.27,6.65-6.62,9.88-9.87
	c2.01-2.02,4.03-4.05,6.05-6.07c1.8-1.8,3.02-3.77,3.73-6.03C99.99,11.69,99.63,8.17,97.84,5.38z M35.46,39.24l-4.19-3.43
	c-3.91-3.2-7.96-6.51-11.93-9.78c-2.44-2.01-3.57-3.88-3.46-5.72c0.12-1.99,1.64-3.87,4.79-5.9c2.08-1.34,4.35-0.5,6.36,0.24
	l0.04,0.01c5.8,2.13,11.68,4.33,17.37,6.46c2.19,0.82,4.38,1.64,6.57,2.46l6.4,2.39L40.19,43.1l-1.61-1.31
	C37.57,40.96,36.51,40.11,35.46,39.24z M79.95,58.47c1.73,4.67,3.45,9.33,5.17,14c0.12,0.32,0.21,0.64,0.3,0.95
	c0.08,0.27,0.16,0.54,0.25,0.8c1.8,5.13-1.77,7.89-4.62,9.53c-0.4,0.23-0.91,0.32-1.46,0.32c-0.75,0-1.55-0.18-2.18-0.43
	c-1.02-0.41-2.08-1.24-3-2.34c-4.45-5.37-8.93-10.86-13.26-16.17l-3.73-4.57c-0.13-0.15-0.23-0.32-0.26-0.37l-0.15-0.25l0.2-0.23
	l16.93-16.91L79.95,58.47z M94.02,13.48c-0.48,1.49-1.47,3.08-2.72,4.35c-5.47,5.59-11.09,11.21-16.52,16.65
	c-1.91,1.92-3.83,3.83-5.74,5.75l-7.17,7.2c-8.46,8.49-17.21,17.28-25.83,25.9c-0.67,0.66-0.83,1.2-0.63,2.05
	c0.78,3.27,1.54,6.61,2.28,9.84c0.31,1.34,0.61,2.69,0.92,4.03c0.67,2.91,0.61,3.05-2.17,4.92l-0.32,0.21l-0.21-0.32
	c-0.09-0.14-0.19-0.28-0.28-0.42c-0.2-0.3-0.41-0.61-0.6-0.94c-0.9-1.52-1.79-3.04-2.68-4.56c-2.27-3.87-4.62-7.87-6.97-11.78
	c-0.4-0.66-1.06-1.31-1.77-1.74c-4.04-2.43-8.17-4.86-12.16-7.21c-1.39-0.82-2.78-1.64-4.18-2.46c-0.3-0.18-0.59-0.36-0.89-0.54
	l-0.73-0.45l0.19-0.32c1.69-2.82,2.34-3.1,5.34-2.35c1.41,0.35,2.83,0.7,4.24,1.05c2.99,0.74,6.09,1.5,9.12,2.3
	c0.92,0.24,1.47,0.08,2.18-0.63C45.49,45.25,63.86,26.9,82.2,8.72c1.33-1.32,3.14-2.36,4.83-2.78c2.37-0.59,4.53-0.06,5.94,1.45
	C94.4,8.91,94.78,11.13,94.02,13.48z"/>
</svg>
