<svg xmlns="http://www.w3.org/2000/svg" xmlns:xlink="http://www.w3.org/1999/xlink" width="69" height="63" viewBox="0 0 69 63">
  <defs>
    <clipPath id="clip-path">
      <rect id="Rectangle_2" data-name="Rectangle 2" width="69" height="64" transform="translate(37 39)"/>
    </clipPath>
    <clipPath id="clip-Web_1920_1">
      <rect width="69" height="63"/>
    </clipPath>
  </defs>
  <g id="Web_1920_1" data-name="Web 1920 – 1" clip-path="url(#clip-Web_1920_1)">
    <rect width="69" height="63" fill="#fff"/>
    <g id="Web_1920_1-2" data-name="Web 1920 – 1" transform="translate(-37 -39)" clip-path="url(#clip-path)">
      <rect id="Rectangle_1" data-name="Rectangle 1" width="70" height="66" transform="translate(36 39)" fill="#fff"/>
      <g id="Group_2" data-name="Group 2" transform="translate(-960.43 -167.43)">
        <g id="Group_1" data-name="Group 1" transform="translate(999.442 209.556)">
          <path id="chevron-right-solid_1_" data-name="chevron-right-solid (1)" d="M62.089,69.212,36.028,95.272a3.218,3.218,0,0,1-4.551,0l-3.04-3.04a3.218,3.218,0,0,1,0-4.546l20.653-20.75L28.432,46.185a3.218,3.218,0,0,1,0-4.546l3.04-3.04a3.218,3.218,0,0,1,4.551,0l26.06,26.06A3.218,3.218,0,0,1,62.089,69.212Z" transform="translate(-27.494 -37.657)" fill="#006a4e"/>
          <path id="chevron-right-solid_1_2" data-name="chevron-right-solid (1)" d="M62.089,69.212,36.028,95.272a3.218,3.218,0,0,1-4.551,0l-3.04-3.04a3.218,3.218,0,0,1,0-4.546l20.653-20.75L28.432,46.185a3.218,3.218,0,0,1,0-4.546l3.04-3.04a3.218,3.218,0,0,1,4.551,0l26.06,26.06A3.218,3.218,0,0,1,62.089,69.212Z" transform="translate(1.738 -37.657)" fill="#006a4e"/>
        </g>
      </g>
    </g>
  </g>
</svg>
