<?xml version="1.0" encoding="utf-8"?>
<!-- Generator: Adobe Illustrator 23.0.3, SVG Export Plug-In . SVG Version: 6.00 Build 0)  -->
<svg version="1.1" id="Layer_1" xmlns="http://www.w3.org/2000/svg" xmlns:xlink="http://www.w3.org/1999/xlink" x="0px" y="0px"
	 viewBox="0 0 47.5 51.5" style="enable-background:new 0 0 47.5 51.5;" xml:space="preserve">
<style type="text/css">
	.st0{fill:#017F41;}
</style>
<polygon class="st0" points="0,0 25.9,25.6 0,51.5 21.9,51.5 47.5,25.9 21.6,0 "/>
</svg>
