<?xml version="1.0" encoding="utf-8"?>
<!-- Generator: Adobe Illustrator 23.0.3, SVG Export Plug-In . SVG Version: 6.00 Build 0)  -->
<svg version="1.1" id="Layer_1" xmlns="http://www.w3.org/2000/svg" xmlns:xlink="http://www.w3.org/1999/xlink" x="0px" y="0px"
	 viewBox="0 0 100 100" style="enable-background:new 0 0 100 100;" xml:space="preserve">
<style type="text/css">
	.st0{fill:#f88a00;}
</style>
<g>
	<path class="st0" d="M1.04,70.5c5.03,0,10.07,0.07,15.1-0.07c1.23-0.03,2.66-0.46,3.63-1.19c4.01-3.04,8.36-4,13.24-2.88
		c1.8,0.41,3.63,0.68,5.44,1c0.34,0.06,0.69,0.04,1.18,0.07c-0.14-0.42-0.23-0.74-0.36-1.05c-2.85-7.12-5.69-14.24-8.55-21.36
		c-0.9-2.23-1.26-4.55-1.08-6.93c0.25-3.27,1.88-5.75,4.85-7.15c3.45-1.63,6.97-3.11,10.48-4.62c1.6-0.69,3.19,0.42,2.86,2.05
		c-0.12,0.58-0.68,1.19-1.21,1.55c-0.72,0.49-1.59,0.76-2.5,1.17c1.44,1.91,3.33,2.61,5.52,2.67c2.43,0.07,4.57-0.54,6.21-2.66
		c-0.88-0.4-1.65-0.74-2.43-1.1c-1.2-0.56-1.67-1.65-1.18-2.73c0.47-1.05,1.57-1.46,2.74-0.95c3.5,1.52,7.03,2.98,10.48,4.62
		c3.08,1.46,4.7,4.03,4.88,7.43c0.12,2.31-0.25,4.56-1.12,6.73c-2.51,6.23-4.99,12.47-7.49,18.7c-0.12,0.29-0.22,0.59-0.39,1.04
		c1.3-0.12,2.48-0.28,3.67-0.32c2.04-0.08,4.1-0.29,6.11-0.08c3.37,0.35,5.59,2.41,6.9,5.47c0.4,0.93,0.84,1.05,1.46,0.27
		c2.17-2.73,5.01-3.84,8.45-3.83c2.54,0.01,4.97,0.23,7.1,1.75c2.83,2.03,4.14,4.9,3.79,8.28c-0.39,3.74-2.69,6.25-6.12,7.65
		c-0.92,0.38-1.97,0.59-2.97,0.6c-4.91,0.06-9.82,0.02-14.73,0.02c-0.13,0-0.25-0.02-0.53-0.05c0-0.33,0-0.66,0-1
		c0-3.67,0-7.33,0-11c0-2.72-1.47-4.32-4.17-4.21c-3.34,0.13-6.66,0.45-10,0.67c-0.56,0.04-0.83,0.28-1.02,0.8
		c-0.38,1.05-0.81,2.07-1.24,3.1c-0.55,1.32-1.58,1.83-2.71,1.36c-1.12-0.47-1.51-1.55-0.99-2.88c3.66-9.19,7.31-18.39,11.03-27.57
		c0.79-1.95,1.01-3.93,0.91-5.98c-0.08-1.44-0.77-2.49-2.05-3.11c-1.38-0.66-2.8-1.21-4.18-1.87c-0.56-0.27-0.73,0.1-0.99,0.42
		c-2.43,2.9-5.49,4.5-9.32,4.43c-3.64-0.07-6.56-1.64-8.84-4.42c-0.4-0.48-0.69-0.6-1.26-0.33c-1.2,0.58-2.44,1.1-3.66,1.63
		c-1.53,0.67-2.29,1.84-2.35,3.51c-0.07,2,0.19,3.9,0.96,5.79C38.29,53,41.9,62.08,45.51,71.16c0.19,0.49,0.34,1.04,0.33,1.56
		c-0.03,0.9-0.74,1.61-1.63,1.74c-0.91,0.13-1.84-0.18-2.04-1.04c-0.45-1.95-1.7-2.24-3.36-2c-0.31,0.04-0.63,0.01-1.01,0.01
		c0,3.73,0,7.44,0,11.23c9.02,0,18.02,0,27.11,0c-0.2-1.69-0.4-3.34-0.61-5.1c-0.8,0-1.59,0.01-2.37,0
		c-1.33-0.03-2.18-0.83-2.18-2.02c0-1.21,0.82-1.97,2.19-1.98c2.1-0.02,4.19,0,6.31,0c0.1,1.9,0.07,3.72,0.3,5.5
		c0.42,3.19,1.01,6.35,1.5,9.52c0.12,0.77,0.65,0.75,1.21,0.75c3.44,0,6.89,0,10.33,0c3.63,0,7.27,0,10.9,0
		c1.18,0,2.4-1.21,2.44-2.41c0.02-0.57-0.01-1.15,0.02-1.72c0.05-1.12,0.86-1.94,1.93-1.97c1.02-0.03,1.96,0.72,2.03,1.78
		c0.08,1.24,0.05,2.49,0.01,3.73c-0.01,0.28-0.24,0.58-0.43,0.81c-0.88,1.09-1.76,2.19-2.71,3.22c-0.3,0.32-0.84,0.58-1.27,0.59
		c-2.87,0.05-5.74,0.03-8.61,0.03c-0.38,0-0.75,0-1.25,0c0,1.9,0,3.7,0,5.55c-1.38,0-2.64,0-4.01,0c0-1.81,0-3.61,0-5.48
		c-1.39,0-2.68,0-4.1,0c0,1.8,0,3.6,0,5.47c-1.41,0-2.69,0-4.06,0c0-1.29,0-2.56,0-3.94c-0.38-0.02-0.68-0.06-0.99-0.06
		c-23.24,0-46.47-0.01-69.71,0c-0.25,0-0.5,0.05-0.75,0.08c0-1.4,0-2.81,0-4.21c0.35,0.03,0.69,0.08,1.04,0.08
		c21.13,0,42.26,0,63.39,0c0.37,0,0.74,0,1.05,0c-0.33-1.43-0.62-2.75-0.94-4.12c-0.34,0-0.65,0-0.97,0c-13.13,0-26.26-0.01-39.39,0
		c-8.06,0-16.13,0.02-24.19,0.02c0-1.34,0-2.68,0-4.02c4.36,0,8.71-0.01,13.07-0.01c1.26,0,1.27,0,1.27-1.22c0-1.72,0-3.43,0-5.15
		c0-0.59,0-1.19,0-1.84c-4.87,0-9.6,0-14.33,0C1.04,73.18,1.04,71.84,1.04,70.5z M19.43,82.59c0.13,0.06,0.18,0.11,0.24,0.11
		c4.49,0.01,8.97,0.02,13.46,0.03c0.54,0,0.62-0.29,0.62-0.73c-0.01-3.56,0.01-7.13-0.03-10.69c0-0.27-0.31-0.71-0.56-0.78
		c-3.99-1.15-7.74-0.87-11,2.02c-0.14,0.13-0.3,0.27-0.47,0.32c-2.33,0.57-2.52,2.24-2.32,4.25c0.14,1.51,0.03,3.05,0.03,4.58
		C19.38,82.01,19.41,82.32,19.43,82.59z M78.59,74.74c0,2,0,3.93,0,5.89c4,0,7.91,0.11,11.82-0.04c2.71-0.1,4.58-2.49,4.52-5.33
		c-0.05-2.49-2.22-4.71-4.78-4.82c-1.24-0.05-2.48-0.02-3.73,0c-1.36,0.03-2.5,0.6-3.3,1.67C82,73.63,80.51,74.49,78.59,74.74z"/>
	<path class="st0" d="M51.15,1.08c0.57,0.17,1.15,0.32,1.72,0.5c4.36,1.43,7.3,5.46,7.27,10.05c-0.01,1.94,0.1,3.92-0.26,5.8
		c-0.94,4.85-6.09,8.62-10.73,8.07c-5.19-0.61-9.29-5.12-9.28-10.24c0-1.88-0.13-3.79,0.18-5.62c0.73-4.28,4.08-7.49,8.39-8.38
		c0.15-0.03,0.29-0.12,0.43-0.18C49.62,1.08,50.39,1.08,51.15,1.08z M56.22,13.3c-0.03,0-0.06,0-0.08,0c0-0.83,0.02-1.66,0-2.48
		c-0.1-3.15-2.28-5.35-5.59-5.67c-3.21-0.31-6.01,1.53-6.47,4.6c-0.32,2.12-0.28,4.32-0.16,6.47c0.18,3.07,2.49,5.1,5.73,5.31
		c3.16,0.2,5.73-1.62,6.31-4.62C56.19,15.72,56.14,14.5,56.22,13.3z"/>
	<path class="st0" d="M50.02,59.24c1.41-3.59,2.7-6.91,4-10.22c0.72-1.84,1.42-3.68,2.15-5.51c0.54-1.36,1.6-1.91,2.77-1.45
		c1.08,0.43,1.49,1.59,0.98,2.9c-2.5,6.43-5.02,12.85-7.5,19.29c-0.23,0.61-0.35,1.29-0.37,1.94c-0.05,2.04-0.01,4.08-0.02,6.11
		c0,0.9-0.33,1.73-1.22,1.96c-0.6,0.16-1.49,0.12-1.93-0.23c-0.49-0.38-0.82-1.22-0.85-1.87c-0.11-1.94,0-3.88-0.06-5.83
		c-0.02-0.75-0.15-1.53-0.42-2.22c-2.47-6.41-4.97-12.8-7.47-19.2c-0.34-0.87-0.35-1.69,0.33-2.39c0.59-0.61,1.38-0.85,2.09-0.45
		c0.55,0.31,1.09,0.9,1.33,1.49c1.91,4.75,3.75,9.53,5.61,14.29C49.58,58.24,49.75,58.6,50.02,59.24z"/>
</g>
</svg>
