<?xml version="1.0" encoding="utf-8"?>
<!-- Generator: Adobe Illustrator 24.1.1, SVG Export Plug-In . SVG Version: 6.00 Build 0)  -->
<svg version="1.1" id="Layer_1" xmlns="http://www.w3.org/2000/svg" xmlns:xlink="http://www.w3.org/1999/xlink" x="0px" y="0px"
	 viewBox="0 0 100 100" style="enable-background:new 0 0 100 100;" xml:space="preserve">
<style type="text/css">
	.st0{fill:#F88A00;}
</style>
<g>
	<path class="st0" d="M42.4,82.5c-3.4,1.9-7,2.9-10.8,2.9c-0.1,0-0.2,0-0.3,0c-12.2,0-22.1-9.2-23-21.4c-0.5-7.4,2.5-14.4,8.3-19.2
		c5.8-4.8,13.3-6.4,20.5-4.4c6.6,1.8,11.9,6.4,14.8,12.5c2.8,6.1,2.8,13.2,0,19.4c-1.3,2.8,0.3,3.9,1.1,4.3c0.7,0.3,1.4,0.4,2.1,0.2
		c0.8-0.3,1.5-1,2-2.1c1.8-3.8,2.7-7.8,2.7-12l0,0c0-0.3,0-0.6,0-0.9c0-0.7,0-1.4-0.1-2.1c-0.9-8.1-5-15.1-11.4-19.9
		C41.9,34.8,34,33,26,34.4C17.9,35.8,10.8,40.8,6.6,48c-4.2,7.2-5.2,15.8-2.5,23.6C8.1,83.4,19,91.1,31.2,91.1
		c1.2,0,2.5-0.1,3.8-0.2c3.7-0.5,7.1-1.6,10.3-3.5c0.9-0.5,1.5-1.3,1.6-2.2c0.1-0.8-0.1-1.6-0.7-2.2C45.7,82.3,44.4,81.4,42.4,82.5z
		"/>
	<path class="st0" d="M97.4,62.4c-0.1-0.7-0.2-1.3-0.3-2c-0.2-1.5-0.4-3-0.7-4.5c-2-8.7-8-15.8-16.4-19.5
		c-8.4-3.7-17.6-3.2-25.3,1.2c-2.1,1.2-2.1,2.9-1.5,4.1c0.8,1.5,2.5,1.9,4.2,0.9c4.5-2.4,9.2-3.3,14.4-2.7
		c5.7,0.7,11.1,3.8,14.8,8.6c3.7,4.8,5.5,10.8,4.8,16.5c-0.8,6.5-4.1,12.2-9.2,16c-5.1,3.8-11.5,5.2-17.9,4.1
		c-5.8-1-11.1-4.5-14.6-9.5c-3.5-5-4.8-11-3.7-16.7c0.3-1.6,0.9-3.2,1.4-4.8c0.2-0.6,0.4-1.2,0.6-1.8c0.5-1.5,0-3-1.3-3.7
		c-1.4-0.7-2.9-0.2-3.8,1.2c-0.2,0.3-0.3,0.6-0.5,1c-2,4.5-2.8,9.2-2.4,14.1c0.6,7.8,4.5,15,10.7,20c5.1,4.1,11.4,6.2,17.7,6.2
		c1.3,0,2.7-0.1,4-0.3c14-2.1,24.4-14,24.7-28.3L97.4,62.4L97.4,62.4z"/>
	<path class="st0" d="M66,30.7c1.1,1.2,2.1,1.2,3.2,0c3.9-4.3,7.8-8.5,11.7-12.8c1.1-1.2,1-2.2-0.3-3.2c-1-0.8-2.1-1.5-3-2.3
		c-2.8-2.5-5.8-4.2-9.7-3.2c-1.4,0-2.8-0.1-4.3,0c-0.8,0.1-1.7,0.2-2.4,0.6c-2.4,1.6-4.6,3.3-6.9,5c-1.2,0.9-1.3,2-0.3,3
		C58.1,22.1,62,26.4,66,30.7z M73.9,14.2c1.1,0.9,2.1,1.6,3.2,2.4c-1.8,2-3.6,3.9-5.3,5.8c-0.1,0-0.1-0.1-0.2-0.1
		C72.3,19.7,73.1,17,73.9,14.2z M70.4,12.9c-0.9,3.1-1.8,6.2-2.6,9.4c-0.1,0-0.2,0-0.3,0c-0.8-3.1-1.6-6.2-2.5-9.4
		C66.8,12.9,68.6,12.9,70.4,12.9z M61.5,14.2c0.8,2.9,1.5,5.6,2.2,8.3c-0.1,0-0.1,0.1-0.2,0.1c-1.8-2-3.6-3.9-5.5-6
		C59.2,15.8,60.3,15.1,61.5,14.2z"/>
	<path class="st0" d="M41.4,32c1.4-1.2,2.8-2.4,4.2-3.7c0.4-0.4,0.6-0.9,1-1.5c-0.5-0.6-0.8-1.4-1.3-1.5c-0.6-0.2-1.6-0.1-2.1,0.3
		c-1.5,1.1-2.9,2.5-4.3,3.7c-0.9,0.8-1,1.9-0.3,2.7C39.4,32.8,40.5,32.8,41.4,32z"/>
	<path class="st0" d="M18.4,32.2c0.4,0.3,1.3,0.3,1.9,0.1c0.5-0.2,0.8-0.9,1.2-1.4c-0.3-0.6-0.4-1.1-0.7-1.4
		c-1.6-1.5-3.1-2.9-4.8-4.2c-0.8-0.6-1.7-0.5-2.4,0.2c-0.7,0.7-0.7,1.8,0,2.5C15.1,29.4,16.7,30.9,18.4,32.2z"/>
	<path class="st0" d="M28.8,22.8c0,0.5,0,0.9,0,1.4s0,0.9,0,1.4c0,1.2,0.8,1.9,1.8,2c1,0,1.8-0.8,1.8-1.9c0-1.8,0-3.6,0-5.4
		c0-1.1-0.8-1.9-1.9-1.9c-1,0-1.7,0.8-1.8,1.9C28.8,21.1,28.8,22,28.8,22.8C28.8,22.8,28.8,22.8,28.8,22.8z"/>
</g>
</svg>
