<?xml version="1.0" encoding="utf-8"?>
<!-- Generator: Adobe Illustrator 23.0.3, SVG Export Plug-In . SVG Version: 6.00 Build 0)  -->
<svg version="1.1" id="Layer_1" xmlns="http://www.w3.org/2000/svg" xmlns:xlink="http://www.w3.org/1999/xlink" x="0px" y="0px"
	 viewBox="0 0 100 100" style="enable-background:new 0 0 100 100;" xml:space="preserve">
<style type="text/css">
	.st0{fill:#F88A00;}
</style>
<g>
	<path class="st0" d="M1.14,90.27c0-16.16,0-32.32,0-48.48c0.43-0.45,0.82-0.96,1.3-1.35c3.73-3.02,7.47-6.02,11.24-9
		c0.61-0.48,0.84-0.98,0.83-1.75c-0.03-8.55,0-17.11-0.04-25.66c-0.01-1.25,0.28-2.22,1.36-2.9c8.14,0,16.29,0,24.43,0
		c0.86,0.61,1.62,1.27,1.26,2.49c-0.28,0.95-1.05,1.33-2.55,1.33c-6.52,0-13.04,0-19.56,0c-0.34,0-0.68,0-1.09,0
		c0,0.35,0,0.6,0,0.85c0,16.13,0,32.25,0.02,48.38c0,0.44,0.23,1,0.54,1.31c4.86,4.9,9.74,9.78,14.63,14.66
		c0.19,0.19,0.41,0.36,0.68,0.6c4.45-4.57,9.75-7.11,16.08-7.09c-2.13-2.15-4.22-4.25-6.39-6.44c-0.19,0.22-0.39,0.52-0.64,0.76
		c-3.86,3.67-9.73,3.88-13.74,0.52c-4.77-4.01-4.99-10.81-0.48-15.43c2-2.05,4.06-4.04,6.06-6.09c0.41-0.42,0.76-0.94,0.99-1.48
		c4.08-9.55,8.15-19.1,12.21-28.66c0.93-2.19,2.23-2.46,3.9-0.79c2.63,2.63,5.28,5.25,7.88,7.9c0.51,0.52,0.87,0.67,1.6,0.32
		c5.42-2.54,11.62,1.52,11.42,7.51c-0.05,1.38-0.56,2.75-0.95,4.57c2.97,2.91,6.22,6.09,9.55,9.36c0-0.36,0-0.58,0-0.8
		c0-1.94-0.02-3.88,0.02-5.82c0.02-1.13,0.9-1.97,1.93-1.96c1.03,0,1.84,0.86,1.87,2c0.01,0.35,0.04,0.7-0.01,1.05
		c-0.08,0.64,0.19,1.03,0.7,1.42c2.96,2.26,5.9,4.53,8.81,6.85c1.33,1.06,2.58,2.23,3.86,3.35c0,16.22,0,32.45,0,48.67
		c-0.07,0.24-0.15,0.48-0.21,0.72c-0.87,3.57-3.04,5.97-6.48,7.21c-0.5,0.18-1.01,0.31-1.52,0.46c-27.1,0-54.21,0-81.31,0
		c-0.32-0.11-0.63-0.24-0.96-0.32c-2.29-0.61-4.22-1.84-5.43-3.85C2.14,93.35,1.73,91.75,1.14,90.27z M13.12,94.99
		c24.67,0,49.13,0,73.72,0c-0.19-0.2-0.28-0.32-0.39-0.41c-8.36-7.59-16.67-15.24-25.1-22.75c-6.53-5.82-15.75-5.92-22.39-0.22
		C33.85,76,28.95,80.63,23.95,85.16c-0.07,0.06-0.09,0.18-0.17,0.34c3.15,0,6.2-0.01,9.25,0.01c1.32,0.01,2.28,0.89,2.23,1.98
		c-0.05,1.09-0.94,1.83-2.24,1.83c-4.29,0-8.59-0.01-12.88,0.01c-0.35,0-0.8,0.06-1.05,0.27C17.13,91.32,15.21,93.09,13.12,94.99z
		 M4.96,47.24c0,0.27,0,0.54,0,0.81c0,7.76,0,15.52,0,23.28c0,5.82,0.01,11.64,0,17.46c0,2.03,0.71,3.71,2.29,5.01
		c0.58,0.48,0.97,0.53,1.59-0.04c7.25-6.64,14.53-13.24,21.8-19.84c0.2-0.18,0.46-0.31,0.6-0.4C22.39,64.68,13.7,55.99,4.96,47.24z
		 M91.92,94.38c2.1-1.27,3.13-3.05,3.13-5.45c-0.01-13.64,0-27.27-0.01-40.91c0-0.26-0.04-0.53-0.04-0.63
		c-8.67,8.67-17.36,17.36-26.09,26.09C76.51,80.38,84.2,87.37,91.92,94.38z M65.84,70.72c0.18-0.12,0.25-0.14,0.29-0.19
		c5.06-5.06,10.13-10.11,15.17-15.19c0.25-0.25,0.37-0.72,0.37-1.1c0.02-5.5,0.02-11,0.02-16.5c0-0.23,0-0.47,0-0.61
		c-0.6,0.41-1.12,0.88-1.73,1.15c-7.96,3.42-15.94,6.8-23.91,10.2c-1.13,0.48-2.25,0.97-3.44,1.49c0.28,0.3,0.46,0.51,0.66,0.71
		c1.8,1.8,3.61,3.59,5.39,5.4c1.13,1.14,1.13,2.12,0.06,3.23c-0.53,0.55-1.08,1.08-1.62,1.62c-1,1-2.01,2-3.14,3.12
		C58.8,64.97,62.56,67.43,65.84,70.72z M47.58,18.27c-2.57,6.04-5.13,12.09-7.73,18.12c-0.25,0.58-0.03,0.86,0.33,1.22
		c2.93,2.91,5.87,5.82,8.76,8.78c0.55,0.56,0.97,0.59,1.64,0.3c4.95-2.14,9.92-4.25,14.88-6.37c1-0.43,1.99-0.86,2.92-1.25
		C61.42,32.11,54.53,25.22,47.58,18.27z M37.16,40.25c-2.06,2.14-4.32,4.25-6.3,6.59c-2,2.38-1.57,6.14,0.67,8.34
		c2.28,2.23,6.04,2.64,8.34,0.57c2.25-2.03,4.21-4.4,6.23-6.55C43.3,46.39,40.28,43.37,37.16,40.25z M76.13,35.77
		C67.7,27.33,59.3,18.92,50.89,10.51c-0.4,0.92-0.79,1.96-1.28,2.95c-0.34,0.66-0.17,1.06,0.33,1.55c2.43,2.38,4.82,4.8,7.23,7.2
		c4.88,4.88,9.75,9.76,14.64,14.62c0.21,0.21,0.63,0.47,0.84,0.39C73.88,36.76,75.08,36.21,76.13,35.77z M6.15,42.37
		c2.83,2.84,5.6,5.61,8.28,8.3c0-4.82,0-9.82,0-14.97C11.56,38.02,8.8,40.24,6.15,42.37z M85.56,50.64
		c2.69-2.69,5.47-5.47,8.27-8.28c-2.65-2.06-5.41-4.21-8.27-6.43C85.56,41.03,85.56,45.95,85.56,50.64z M47.05,54.32
		c1.86,1.88,3.73,3.76,5.47,5.51c0.72-0.65,1.51-1.37,2.25-2.03c-1.9-1.9-3.76-3.76-5.64-5.64C48.43,52.89,47.69,53.66,47.05,54.32z
		 M63.87,17.51c1.79,1.8,3.51,3.52,5.21,5.22c0.54-1.21,0.17-3-0.96-4.1C66.92,17.46,65.49,17.06,63.87,17.51z"/>
	<path class="st0" d="M69.28,1.14c1.12,0.57,1.54,1.49,1.44,2.73c-0.07,0.92,0.01,1.84-0.01,2.76C70.69,7.94,69.92,8.8,68.8,8.8
		c-1.11,0-1.87-0.85-1.9-2.17c-0.02-0.92,0.05-1.85-0.02-2.76c-0.09-1.24,0.32-2.16,1.44-2.73C68.64,1.14,68.96,1.14,69.28,1.14z"/>
	<path class="st0" d="M76.31,12.75c-1.75,0.01-2.67-1.56-1.97-2.8c0.18-0.33,0.46-0.61,0.72-0.88c2.26-2.27,4.53-4.54,6.81-6.81
		c0.25-0.25,0.51-0.48,0.8-0.67c0.76-0.5,1.74-0.39,2.36,0.24c0.62,0.63,0.72,1.59,0.22,2.36c-0.15,0.24-0.35,0.45-0.55,0.65
		c-2.38,2.38-4.75,4.78-7.15,7.13C77.13,12.37,76.56,12.6,76.31,12.75z"/>
	<path class="st0" d="M28.75,26.33c-1.46,0-2.92,0.01-4.38,0c-1.15-0.01-2.01-0.77-2.04-1.81c-0.04-1.03,0.78-1.96,1.91-1.97
		c3.08-0.04,6.16-0.04,9.24,0.01c1.12,0.02,1.9,0.97,1.84,2.02c-0.06,1.01-0.88,1.75-1.99,1.76C31.8,26.34,30.27,26.33,28.75,26.33z
		"/>
	<path class="st0" d="M28.03,15.64c-1.24,0-2.48,0.01-3.71,0c-1.09-0.01-1.93-0.77-1.98-1.77c-0.06-0.99,0.7-1.97,1.77-2
		c2.63-0.06,5.27-0.06,7.9,0c1.06,0.02,1.83,0.97,1.79,1.97c-0.04,1.01-0.86,1.79-1.95,1.8C30.56,15.66,29.29,15.64,28.03,15.64z"/>
	<path class="st0" d="M81.73,19.81c-0.63,0-1.27,0.04-1.9-0.01c-1.14-0.08-1.97-0.93-1.96-1.95c0.01-1.08,0.87-1.84,2.1-1.85
		c1.21-0.01,2.41-0.01,3.62-0.01c1.13,0.01,2.01,0.79,2.06,1.81c0.04,0.96-0.74,1.86-1.82,1.97c-0.69,0.07-1.39,0.01-2.09,0.01
		C81.73,19.79,81.73,19.8,81.73,19.81z"/>
	<path class="st0" d="M38.89,15.65c-1.01-0.03-1.88-0.92-1.86-1.91c0.02-0.97,0.95-1.88,1.92-1.87c1.04,0.01,1.93,0.95,1.89,1.98
		C40.8,14.87,39.93,15.68,38.89,15.65z"/>
	<path class="st0" d="M39.29,87.37c0.03-1,0.94-1.86,1.93-1.83c0.98,0.03,1.88,0.96,1.87,1.92c-0.01,1.04-0.95,1.9-2,1.86
		C40.06,89.28,39.26,88.4,39.29,87.37z"/>
</g>
</svg>
