<?xml version="1.0" encoding="utf-8"?>
<!-- Generator: Adobe Illustrator 23.0.3, SVG Export Plug-In . SVG Version: 6.00 Build 0)  -->
<svg version="1.1" id="Layer_1" xmlns="http://www.w3.org/2000/svg" xmlns:xlink="http://www.w3.org/1999/xlink" x="0px" y="0px"
	 viewBox="0 0 100 100" style="enable-background:new 0 0 100 100;" xml:space="preserve">
<style type="text/css">
	.st0{fill:#f88a00;}
</style>
<g>
	<path class="st0" d="M48.31,7.29c0-2.24,0-4.27,0-6.43c1.13,0,2.11,0,3.24,0c0,2.02,0,4.05,0,6.31c2.21,0,4.29,0,6.5,0
		c0,1.2,0,2.18,0,3.31c-2.03,0-4.06,0-6.4,0c0,2.43-0.06,4.72,0.06,7c0.02,0.44,0.72,0.92,1.2,1.24c3.85,2.6,7.69,5.21,11.6,7.72
		c1.34,0.86,1.98,1.8,1.93,3.48c-0.12,4.1,0.01,8.2-0.06,12.3c-0.02,1.2,0.41,1.79,1.44,2.36c6.34,3.52,5.04,1.38,5.13,8.6
		c0.07,5.87,0.01,11.74,0.01,18.05c2.81-2.1,5.35-4,7.89-5.89c4.16-3.09,3.08-3.02,7.18-0.01c3.19,2.35,6.3,4.81,9.53,7.1
		c1.26,0.9,1.7,1.91,1.68,3.43c-0.07,6.83-0.02,13.67-0.03,20.5c0,2.43-0.33,2.78-2.68,2.78c-31.02,0.01-62.04,0.01-93.06,0
		c-2.36,0-2.69-0.35-2.69-2.78C0.77,89.4,0.72,82.43,0.83,75.46c0.01-0.92,0.6-2.13,1.32-2.7C6,69.7,10,66.83,13.9,63.83
		c1.18-0.91,2.12-0.89,3.28,0.01c3.12,2.41,6.31,4.75,9.71,7.29c0.06-0.84,0.13-1.41,0.13-1.98c0-6.63,0.03-13.26-0.03-19.88
		c-0.01-1.42,0.4-2.48,1.75-2.87c4.29-1.24,5.44-4.13,4.91-8.32c-0.33-2.62,0.03-5.33-0.09-7.98c-0.08-1.69,0.47-2.76,1.92-3.68
		c3.86-2.45,7.6-5.09,11.45-7.57c1.02-0.66,1.53-1.36,1.46-2.62c-0.11-1.82-0.03-3.65-0.03-5.63c-2.22,0-4.25,0-6.42,0
		c0-1.13,0-2.1,0-3.31C43.99,7.29,46.07,7.29,48.31,7.29z M69.56,95.82c0.05-0.43,0.11-0.69,0.11-0.95
		c0.01-14.76-0.01-29.53,0.04-44.29c0-1.23-0.61-1.64-1.48-2.11c-5.6-2.99-11.21-5.96-16.77-9.03c-1.12-0.62-1.94-0.52-3,0.06
		c-5.45,2.98-10.91,5.94-16.43,8.79c-1.35,0.7-1.76,1.5-1.76,2.99c0.06,14.22,0.03,28.44,0.04,42.65c0,0.59,0.07,1.19,0.11,1.77
		c2.21,0,4.28,0,6.46,0c0-4.04-0.06-7.93,0.02-11.82c0.11-5.46,3.77-10.25,9.02-11.98c5.23-1.72,11,0.01,14.36,4.32
		c1.87,2.4,2.84,5.11,2.84,8.16c0,3.8,0,7.59,0,11.42C65.4,95.82,67.38,95.82,69.56,95.82z M15.54,66.75
		c-3.44,2.58-6.74,5.12-10.12,7.54c-1.08,0.77-1.42,1.61-1.4,2.9c0.07,5.53,0.03,11.06,0.03,16.6c0,0.66,0.06,1.31,0.09,1.91
		c7.73,0,15.27,0,22.88,0c0-6.52,0.03-12.87-0.04-19.22c-0.01-0.62-0.46-1.43-0.96-1.82C22.63,72.01,19.16,69.46,15.54,66.75z
		 M84.44,66.75c-3.65,2.74-7.22,5.36-10.69,8.1c-0.51,0.4-0.75,1.39-0.76,2.12c-0.06,4.85-0.03,9.7-0.03,14.55c0,1.41,0,2.81,0,4.19
		c7.82,0,15.36,0,22.97,0c0-6.51,0.03-12.86-0.04-19.21c-0.01-0.62-0.44-1.44-0.94-1.83C91.55,72.02,88.08,69.47,84.44,66.75z
		 M63.11,41.97c0-4.11,0.05-7.79-0.05-11.48c-0.02-0.59-0.55-1.36-1.07-1.72c-3.59-2.48-7.23-4.91-10.91-7.25
		c-0.52-0.33-1.59-0.38-2.09-0.06c-3.75,2.37-7.43,4.85-11.09,7.36c-0.48,0.33-0.99,1.02-1,1.56c-0.09,3.73-0.05,7.47-0.05,11.47
		c0.76-0.35,1.3-0.58,1.82-0.85c2.95-1.57,5.97-3.03,8.81-4.78c1.83-1.13,3.28-1.01,5.06,0.03C55.89,38.2,59.35,39.94,63.11,41.97z
		 M48.25,74.89c-3.96,0.47-7.41,3.46-7.82,7.63c-0.43,4.36-0.1,8.8-0.1,13.19c2.69,0,5.31,0,7.91,0c0-2.73,0-5.3,0-7.94
		c-1.08-0.08-2.07-0.15-3.03-0.21c0-1.12,0-2.1,0-3.22c1.08,0,2.01,0,3.04,0C48.25,81.14,48.25,78.1,48.25,74.89z M59.79,95.77
		c0-4.25,0.19-8.35-0.05-12.42c-0.26-4.48-4.13-8.29-8.11-8.35c0,1.56,0,3.13,0,4.69c0,1.54,0,3.08,0,4.61
		c1.25,0.06,2.18,0.1,3.15,0.14c0,1.12,0,2.1,0,3.14c-1.11,0.06-2.09,0.11-3.05,0.17c0,2.78,0,5.35,0,8.01
		C54.41,95.77,56.98,95.77,59.79,95.77z"/>
	<path class="st0" d="M59.83,58.1c0.03,5.37-4.34,9.81-9.71,9.87c-5.49,0.06-9.96-4.34-9.97-9.81c-0.01-5.38,4.36-9.83,9.71-9.87
		C55.36,48.25,59.8,52.62,59.83,58.1z M56.55,58.22c0.05-3.56-2.87-6.59-6.42-6.65c-3.68-0.07-6.7,2.9-6.7,6.58
		c0,3.57,2.95,6.52,6.52,6.54C53.54,64.71,56.5,61.8,56.55,58.22z"/>
	<path class="st0" d="M15.61,87.66c-2.05,0-4.09-0.02-6.14,0.01c-1.44,0.02-2.16-0.63-2.14-2.09c0.02-1.57-0.04-3.14,0.02-4.71
		c0.18-4.51,3.77-7.98,8.21-7.98c4.42,0,8.02,3.52,8.17,8.03c0.05,1.5-0.02,3,0.01,4.5c0.04,1.53-0.64,2.27-2.2,2.25
		C19.57,87.64,17.59,87.66,15.61,87.66z M13.73,84.29c0-2.59,0-5.09,0-7.67c-2.93,1.55-3.74,3.87-2.83,7.67
		C11.83,84.29,12.76,84.29,13.73,84.29z M17.23,84.24c1.16,0,2.14,0,3.09,0c0.44-4.82-0.33-6.64-3.09-7.46
		C17.23,79.23,17.23,81.65,17.23,84.24z"/>
	<path class="st0" d="M84.43,87.66c-1.98,0-3.96-0.03-5.93,0.01c-1.52,0.03-2.3-0.59-2.27-2.17c0.04-1.57-0.04-3.14,0.03-4.71
		c0.18-4.48,3.82-7.93,8.29-7.9c4.31,0.03,7.92,3.53,8.09,7.9c0.06,1.43-0.05,2.87,0.02,4.3c0.09,1.81-0.62,2.67-2.5,2.59
		C88.26,87.6,86.35,87.66,84.43,87.66z M82.7,76.57c-3.01,1.63-3.82,3.93-2.89,7.72c0.93,0,1.86,0,2.89,0
		C82.7,81.72,82.7,79.25,82.7,76.57z M86.15,84.23c1.17,0,2.15,0,3.1,0c0.38-4.92-0.38-6.69-3.1-7.43
		C86.15,79.24,86.15,81.67,86.15,84.23z"/>
</g>
</svg>
