<?xml version="1.0" encoding="utf-8"?>
<!-- Generator: Adobe Illustrator 23.0.3, SVG Export Plug-In . SVG Version: 6.00 Build 0)  -->
<svg version="1.1" id="Layer_1" xmlns="http://www.w3.org/2000/svg" xmlns:xlink="http://www.w3.org/1999/xlink" x="0px" y="0px"
	 viewBox="0 0 100 100" style="enable-background:new 0 0 100 100;" xml:space="preserve">
<style type="text/css">
	.st0{fill:#F88A00;}
</style>
<g>
	<path class="st0" d="M50,18.18c8.95,0,17.91,0.02,26.86-0.02c1.19,0,1.96,0.37,2.7,1.3c5.94,7.4,11.92,14.77,17.92,22.11
		c0.82,1.01,0.73,1.69-0.13,2.62c-15.37,16.6-30.72,33.23-46.08,49.85c-0.91,0.98-1.55,1-2.43,0.04C33.41,77.4,18,60.7,2.56,44.04
		c-0.74-0.8-0.81-1.44-0.1-2.31c6.13-7.53,12.25-15.07,18.34-22.63c0.62-0.76,1.31-0.92,2.21-0.92C32,18.18,41,18.18,50,18.18z
		 M49.86,89.73c0.11,0.01,0.21,0.02,0.31,0.04c5.68-15.16,11.36-30.33,17.09-45.61c-11.57,0-22.93,0-34.47,0
		C38.52,59.45,44.19,74.59,49.86,89.73z M46.26,87.69c0.06-0.04,0.12-0.07,0.19-0.11c-0.07-0.24-0.13-0.49-0.21-0.72
		c-5.23-13.95-10.46-27.9-15.67-41.84c-0.29-0.78-0.7-0.98-1.47-0.98c-7.3,0.02-14.6,0.01-21.91,0.02c-0.31,0-0.63,0.08-1.12,0.17
		C19.57,58.82,32.92,73.26,46.26,87.69z M94.13,44.05c-0.87,0-1.34,0-1.81,0c-6.99,0-13.98,0.02-20.96-0.02
		c-1.1-0.01-1.63,0.3-2.03,1.36c-4.86,13.09-9.77,26.15-14.68,39.23c-0.37,0.98-0.72,1.97-1.07,2.95c0.07,0.05,0.14,0.08,0.21,0.13
		C67.13,73.26,80.47,58.82,94.13,44.05z M5.8,41.52c0.37,0.07,0.54,0.13,0.69,0.13c7.71,0.01,15.42,0.02,23.11-0.02
		c0.5,0,1.15-0.44,1.49-0.86c5.19-6.34,10.33-12.71,15.49-19.08c0.23-0.29,0.42-0.61,0.66-0.95c-0.23-0.07-0.31-0.12-0.39-0.12
		c-7.79-0.01-15.59-0.02-23.39,0.02c-0.47,0-1.05,0.41-1.37,0.8C18,26.42,13.93,31.45,9.86,36.46C8.55,38.09,7.23,39.74,5.8,41.52z
		 M94.31,41.66c-0.39-0.54-0.56-0.79-0.75-1.03c-5.11-6.3-10.23-12.58-15.3-18.9c-0.69-0.86-1.37-1.17-2.46-1.16
		c-7.17,0.05-14.34,0.02-21.51,0.02c-0.47,0-0.93,0-1.62,0c0.36,0.5,0.54,0.8,0.75,1.06C58.55,28,63.69,34.31,68.8,40.66
		c0.6,0.74,1.18,1.03,2.12,1.03c7.27-0.04,14.52-0.02,21.79-0.02C93.13,41.66,93.57,41.66,94.31,41.66z M33.61,41.54
		c11.04,0,21.81,0,32.81,0c-5.55-6.84-10.94-13.48-16.41-20.22C44.52,28.09,39.15,34.72,33.61,41.54z"/>
	<path class="st0" d="M11.77,15.6c0.02,2.23-1.8,4.09-4.04,4.12s-4.09-1.8-4.12-4.03c-0.02-2.24,1.81-4.12,4.04-4.14
		C9.87,11.52,11.74,13.37,11.77,15.6z M9.95,15.63c0-1.23-1.09-2.29-2.3-2.27c-1.23,0.02-2.27,1.11-2.22,2.34
		c0.04,1.19,1.03,2.17,2.23,2.18C8.9,17.91,9.95,16.87,9.95,15.63z"/>
	<path class="st0" d="M5.99,88.07c0.07-2.24,1.97-4.04,4.19-3.97c2.24,0.07,4.04,1.97,3.97,4.19c-0.07,2.24-1.94,4.01-4.19,3.96
		C7.72,92.19,5.93,90.31,5.99,88.07z M10.03,85.9c-1.23,0.02-2.26,1.12-2.22,2.35c0.05,1.25,1.11,2.23,2.37,2.17
		c1.19-0.06,2.16-1.07,2.16-2.26C12.34,86.94,11.24,85.88,10.03,85.9z"/>
	<path class="st0" d="M93.56,17.73c-2.26,0-4.08-1.83-4.08-4.06c0-2.22,1.86-4.08,4.08-4.08c2.26,0.01,4.07,1.84,4.07,4.08
		S95.81,17.73,93.56,17.73z M93.51,15.9c1.28,0.02,2.3-1,2.29-2.27c-0.01-1.21-1.01-2.22-2.22-2.23c-1.24-0.02-2.33,1.06-2.3,2.29
		C91.3,14.9,92.29,15.88,93.51,15.9z"/>
	<path class="st0" d="M73.07,95.23c0.02,2.29-1.73,4.08-4.01,4.09c-2.27,0.02-4.07-1.75-4.09-4.02c-0.01-2.28,1.74-4.08,4.01-4.1
		C71.27,91.19,73.06,92.95,73.07,95.23z M69.01,93.01c-1.26,0.01-2.26,1.06-2.22,2.34c0.04,1.23,1.01,2.16,2.26,2.15
		c1.24-0.01,2.2-0.97,2.22-2.2C71.29,94.04,70.28,93,69.01,93.01z"/>
	<path class="st0" d="M26.8,95.42c0,0.86,0.1,1.53-0.04,2.16c-0.08,0.38-0.55,0.67-0.84,1c-0.31-0.32-0.8-0.6-0.88-0.97
		c-0.14-0.63-0.04-1.31-0.04-2.2c-0.78,0-1.49,0.1-2.16-0.04c-0.37-0.08-0.66-0.56-0.98-0.85c0.31-0.3,0.58-0.78,0.95-0.86
		c0.62-0.14,1.31-0.04,2.17-0.04c0-0.78-0.11-1.44,0.04-2.05c0.11-0.42,0.57-0.74,0.87-1.11c0.3,0.37,0.75,0.69,0.86,1.11
		c0.14,0.57,0.04,1.22,0.04,2.06c0.8,0,1.52-0.1,2.17,0.04c0.37,0.07,0.66,0.55,0.99,0.84c-0.32,0.31-0.6,0.79-0.95,0.87
		C28.38,95.53,27.68,95.42,26.8,95.42z"/>
	<path class="st0" d="M26.62,5.71c0,0.73,0.12,1.41-0.04,2.03c-0.11,0.41-0.6,0.7-0.92,1.05c-0.27-0.35-0.7-0.66-0.78-1.04
		c-0.13-0.63-0.04-1.3-0.04-2.12c-0.82,0-1.5,0.1-2.12-0.04c-0.38-0.08-0.68-0.51-1.03-0.79c0.33-0.32,0.63-0.84,1.03-0.93
		c0.61-0.16,1.3-0.05,2.12-0.05c0-0.82-0.1-1.5,0.04-2.14c0.08-0.38,0.54-0.68,0.82-1.01c0.31,0.32,0.79,0.6,0.87,0.97
		c0.14,0.63,0.04,1.32,0.04,2.09c0.49,0.04,0.88,0.05,1.26,0.08c0.74,0.07,1.83-0.3,1.83,0.94c0,1.17-1.05,0.79-1.74,0.86
		C27.57,5.66,27.18,5.67,26.62,5.71z"/>
	<path class="st0" d="M79.68,8.6c0.86,0,1.54-0.08,2.17,0.04c0.35,0.06,0.61,0.49,0.92,0.74c-0.29,0.33-0.52,0.86-0.87,0.94
		c-0.63,0.16-1.32,0.05-2.22,0.05c0,0.68,0.12,1.31-0.04,1.87c-0.12,0.47-0.56,0.84-0.86,1.25c-0.3-0.39-0.74-0.75-0.87-1.21
		c-0.16-0.52-0.04-1.12-0.04-1.91c-0.79,0-1.46,0.11-2.06-0.04c-0.42-0.11-0.73-0.57-1.1-0.88c0.37-0.29,0.7-0.63,1.11-0.85
		c0.2-0.12,0.52-0.06,0.79-0.02c1,0.14,1.41-0.27,1.26-1.26c-0.01-0.08-0.01-0.18,0-0.26c0.05-0.68-0.19-1.6,0.88-1.6
		c1.04,0,0.91,0.89,0.92,1.6C79.69,7.49,79.68,7.93,79.68,8.6z"/>
	<path class="st0" d="M92.46,80.93c0.76,0,1.41-0.12,1.97,0.04c0.44,0.13,0.8,0.6,1.19,0.92c-0.38,0.27-0.73,0.69-1.15,0.79
		c-0.57,0.14-1.22,0.04-2.02,0.04c0,0.86,0.08,1.56-0.04,2.24c-0.06,0.33-0.56,0.89-0.73,0.85c-0.38-0.1-0.88-0.47-0.97-0.81
		c-0.16-0.67-0.05-1.4-0.05-2.29c-0.81,0-1.48,0.1-2.11-0.04c-0.37-0.08-0.67-0.52-1-0.8c0.31-0.31,0.57-0.8,0.93-0.88
		c0.62-0.14,1.31-0.04,2.16-0.04c0-0.69-0.13-1.3,0.04-1.81c0.16-0.49,0.61-0.88,0.93-1.31c0.27,0.42,0.67,0.8,0.8,1.26
		C92.57,79.58,92.46,80.14,92.46,80.93z"/>
</g>
</svg>
