<?xml version="1.0" encoding="utf-8"?>
<!-- Generator: Adobe Illustrator 24.1.1, SVG Export Plug-In . SVG Version: 6.00 Build 0)  -->
<svg version="1.1" id="Layer_1" xmlns="http://www.w3.org/2000/svg" xmlns:xlink="http://www.w3.org/1999/xlink" x="0px" y="0px"
	 viewBox="0 0 100 100" style="enable-background:new 0 0 100 100;" xml:space="preserve">
<style type="text/css">
	.st0{fill:#F88A00;}
</style>
<g>
	<path class="st0" d="M1.9,73.4c0.7-2.8,2.7-4.2,5.1-5.3c3.9-1.8,7.8-3.4,11.6-5.3c6.8-3.4,12.5-8.2,17.8-13.8c1-1.1,2-2.2,3-3.4
		c2-2.3,4.4-3.5,7.5-3.4c0.4,0,0.8,0,1.3,0c0-1.4,0.1-2.7,0-4c-0.1-1.9,0.7-3.1,2.1-4c0.5-0.3,1-0.7,1.5-1c1.2-0.9,1.5-2.3,1-3.6
		c-0.5-1.3-1.9-2.2-3.2-2c-1.3,0.2-2.4,1.3-2.7,2.6c0,0.3-0.1,0.6-0.1,0.9c-0.2,1-1,1.6-1.8,1.5c-0.9-0.1-1.6-0.9-1.6-2
		c0.1-3.6,2.9-6.5,6.4-6.6c3.3-0.2,6.3,2.5,6.7,6c0.3,2.7-0.6,5-2.9,6.3c-1.6,1-2.2,2.1-2,4c0.1,0.6,0,1.3,0,2.1c1.1,0,2.1,0,3.1,0
		c2.1,0.1,3.8,1,5.2,2.5c2.3,2.4,4.5,4.9,6.9,7.2c5.7,5.6,12.2,9.9,19.4,13c2.9,1.3,5.8,2.6,8.7,4.1c1.6,0.8,2.7,2.3,3.1,4.2
		c0.4,1.9-0.7,3.1-2.5,2.7c-0.3-0.1-0.7-0.2-1-0.4C81,69.4,68.1,61.8,56.1,52.7c-4.2-3.2-8-3.1-12.2,0C31.9,61.8,19,69.4,5.5,75.6
		c-1.7,0.8-2.5,0.6-3.6-0.8C1.9,74.3,1.9,73.9,1.9,73.4z"/>
</g>
</svg>
