<?xml version="1.0" encoding="utf-8"?>
<!-- Generator: Adobe Illustrator 23.0.3, SVG Export Plug-In . SVG Version: 6.00 Build 0)  -->
<svg version="1.1" id="Layer_1" xmlns="http://www.w3.org/2000/svg" xmlns:xlink="http://www.w3.org/1999/xlink" x="0px" y="0px"
	 viewBox="0 0 100 100" style="enable-background:new 0 0 100 100;" xml:space="preserve">
<style type="text/css">
	.st0{fill:#f88a00;}
</style>
<g>
	<g>
		<path class="st0" d="M29.2,90.28c1.44,0,2.76,0,4.21,0c0,1.36,0,2.77,0,4.23c15.41,0,30.7,0,46.1,0c0-1.42,0-2.78,0-4.13
			c0-1.82-0.01-3.64,0-5.46c0.02-2.71,1.65-4.38,4.37-4.41c3.41-0.03,6.82-0.01,10.24-0.01c0.35,0,0.7,0,1.12,0
			c0-22.99,0-45.88,0-68.87c-4.28,0-8.55,0-12.91,0c0-1.47,0-2.84,0-4.32c0.47,0,0.91,0,1.36,0c3.83,0,7.67,0,11.5,0
			c2.71,0,4.36,1.65,4.36,4.38c0,27.56,0,55.11,0,82.67c0,2.9-1.69,4.57-4.62,4.58c-3.61,0-7.21,0.01-10.82,0
			c-16.86-0.05-33.72-0.11-50.58-0.17c-2.78-0.01-4.33-1.56-4.33-4.35C29.2,93.02,29.2,91.63,29.2,90.28z M94.91,84.06
			c-0.27-0.09-0.33-0.12-0.39-0.13c-2.37-0.01-4.74-0.02-7.11-0.01c-2.72,0.01-4.47,1.71-4.52,4.41c-0.03,1.72-0.01,3.44,0,5.16
			c0,0.2,0.07,0.4,0.14,0.73C87.03,90.81,90.91,87.48,94.91,84.06z"/>
	</g>
	<g>
		<path class="st0" d="M50.1,13.51c0-2.35-0.12-4.62,0.04-6.87c0.11-1.46,1.73-2.58,3.43-2.66c1.36-0.06,2.73-0.06,4.09-0.02
			c0.65,0.02,0.91-0.17,0.96-0.86c0.1-1.49,0.74-2.03,2.28-2.03c2.21-0.01,4.42,0,6.63,0c1.92,0,2.39,0.43,2.59,2.36
			c0.01,0.13,0.05,0.25,0.1,0.52c0.89,0,1.79,0,2.69,0c0.71,0,1.43-0.02,2.14,0.03c2.1,0.12,3.53,1.49,3.64,3.59
			c0.09,1.65,0.03,3.31,0.06,4.97c0.02,0.96-0.61,0.99-1.31,0.99c-5.43-0.01-10.85-0.01-16.28-0.01c-3.35,0-6.69,0-10.04,0
			C50.79,13.51,50.44,13.51,50.1,13.51z"/>
	</g>
	<g>
		<path class="st0" d="M57.11,69.79l2.43-4.75c6.85-0.02,14.67-0.02,21.52-0.02c1.69,0,3.38,0,5.06,0c1.76,0,2.79,0.88,2.79,2.39
			c0,1.49-1.02,2.36-2.82,2.37c-6.23,0.01-12.47,0.01-18.7,0.01c-3.02,0-6.04,0-9.06,0C58,69.79,57.64,69.79,57.11,69.79z"/>
	</g>
	<g>
		<path class="st0" d="M65.76,25.51c8.09,0,12.28,0,20.38,0c1.8,0,2.84,0.96,2.78,2.51c-0.06,1.36-1.03,2.25-2.53,2.25
			c-6.21,0.01-14.37-0.05-20.57,0.04L65.76,25.51z"/>
	</g>
	<g>
		<path class="st0" d="M63.95,51.87c2.06,0,4.26,0,6.27,0c5.39,0,10.78,0,16.17,0c1.35,0,2.26,0.7,2.48,1.87
			c0.29,1.54-0.67,2.84-2.25,2.85c-7.76,0.03-16.1,0.02-23.86,0.01L63.95,51.87z"/>
	</g>
	<g>
		<path class="st0" d="M65.48,43.46l0.21-4.73c3.15-0.04,7.67-0.04,10.82-0.04c3.28,0,6.56,0,9.84,0.02
			c1.6,0.01,2.59,0.96,2.58,2.41c-0.01,1.41-1,2.33-2.55,2.33c-5.13,0.01-10.26,0-15.4,0C69.32,43.46,67.28,43.46,65.48,43.46z"/>
	</g>
	<g>
		<path class="st0" d="M46.45,7.44c0,1.37,0,2.68,0,4.09c-4.32,0-8.59,0-12.97,0c0,1.52,0,2.96,0,4.46c-1.46,0-2.8,0-4.21,0
			c0-1.82-0.14-3.67,0.04-5.49c0.18-1.76,1.79-3.14,3.57-3.16c4.44-0.06,8.89-0.01,13.33,0C46.26,7.34,46.32,7.39,46.45,7.44z"/>
	</g>
	<g>
		<path class="st0" d="M31.31,85.41c-1.02,0-2.03-0.23-3.03-0.7C18.45,80.1,11.12,73.24,6.5,64.32c-2.71-5.24-4.48-11.18-5.25-17.64
			c-0.22-1.82-0.35-3.66-0.47-5.43c-0.06-0.8-0.11-1.61-0.18-2.41L0.45,36.9l0.22-0.02c0-0.67,0-1.35,0-2.02
			c0.03-4.18,2.47-6.76,6.68-7.08c5.37-0.4,9.91-1.51,13.89-3.37c1.79-0.84,3.66-1.88,6.07-3.39c2.91-1.82,5.74-1.78,8.41,0.12
			c5.62,3.99,11.95,6.16,19.34,6.64h0c4.59,0.29,7.04,3,6.89,7.63c-0.25,7.8-1.35,14.5-3.36,20.47
			c-4.11,12.19-12.04,21.78-23.57,28.48C33.81,85.05,32.56,85.41,31.31,85.41z M4.57,39.54c0.04,0.48,0.07,0.95,0.1,1.43
			c0.12,1.73,0.25,3.52,0.45,5.24c0.72,6.08,2.31,11.42,4.84,16.31c4.27,8.25,10.81,14.36,19.97,18.65c1.07,0.5,2.03,0.44,3.12-0.2
			C43.75,74.77,51.1,65.9,54.9,54.62c1.92-5.68,2.92-11.83,3.16-19.35c0.08-2.54-0.74-3.45-3.24-3.61h0
			c-8.02-0.51-15.21-2.99-21.35-7.35c-1.37-0.97-2.51-0.97-4.08,0.01c-1.72,1.07-4.01,2.46-6.49,3.62
			c-4.42,2.07-9.41,3.29-15.26,3.73c-2.19,0.16-3.05,1.07-3.07,3.22c-0.01,0.86-0.01,1.74,0,2.59c0,0.4,0,0.79,0,1.19V39.54z"/>
	</g>
	<g>
		<g>
			<path class="st0" d="M33.14,37.09v13.66h13.14v3.49H33.14v13.78h-3.72V54.23H16.28v-3.49h13.14V37.09H33.14z"/>
		</g>
	</g>
</g>
</svg>
