<?xml version="1.0" encoding="utf-8"?>
<!-- Generator: Adobe Illustrator 23.0.3, SVG Export Plug-In . SVG Version: 6.00 Build 0)  -->
<svg version="1.1" id="Layer_1" xmlns="http://www.w3.org/2000/svg" xmlns:xlink="http://www.w3.org/1999/xlink" x="0px" y="0px"
	 viewBox="0 0 100 100" style="enable-background:new 0 0 100 100;" xml:space="preserve">
<style type="text/css">
	.st0{fill:#f88a00;}
</style>
<g>
	<path class="st0" d="M98.88,8.42c-1.71,4.57-3.44,9.12-5.11,13.7c-2.37,6.5-4.7,13.01-7.07,19.57c0.78,0.55,1.54,1.01,2.21,1.58
		c4.38,3.7,6.24,8.44,4.84,13.98c-2.87,11.35-7.26,22.09-14.48,31.41c-2.59,3.34-5.77,6.23-8.85,9.15
		c-0.75,0.71-2.21,1.13-3.27,1.01c-21.22-2.39-39.18-11.13-53.12-27.55c-0.61-0.72-1.15-2.11-0.85-2.8
		c0.29-0.66,1.71-1.13,2.66-1.16c12.51-0.37,29.88-6.76,36.97-24.97c2.74-7.05,9.09-10.05,16.39-8.03c0.49,0.13,0.98,0.27,1.65,0.45
		c0.31-0.57,0.65-1.17,0.96-1.77c4.98-9.37,9.92-18.76,14.99-28.08c0.78-1.43,2.18-2.51,3.3-3.76c1.15,0,2.29,0,3.44,0
		c2.15,1.1,4.3,2.19,5.35,4.58C98.88,6.64,98.88,7.53,98.88,8.42z M19.5,70.93c-0.09,0.19-0.17,0.39-0.26,0.58
		c3.78,3.17,7.53,6.37,11.37,9.47c0.41,0.33,1.33,0.24,1.95,0.08c5.88-1.45,10.55-4.89,14.74-9.09c0.54-0.54,0.97-1.38,1.6-1.59
		c0.83-0.27,2.04-0.36,2.67,0.07c0.43,0.3,0.23,1.64,0.13,2.49c-0.04,0.36-0.56,0.66-0.86,0.99c-4.19,4.51-9.07,8.06-14.93,10.59
		c3.91,2.06,7.89,3.81,11.81,5.7c1.57,0.75,2.8,0.57,4.22-0.35c5.27-3.42,9.46-7.88,13.01-13c0.73-1.06,1.67-1.71,2.89-0.89
		c1.28,0.85,1.11,1.99,0.32,3.15c-3.24,4.69-6.99,8.91-11.59,12.32c-0.43,0.32-0.83,0.68-1.73,1.42c4.4,0.73,8.26,1.42,12.14,1.96
		c0.63,0.09,1.49-0.32,2.01-0.77c7.55-6.51,12.42-14.84,16.35-24.08c-3.26-0.45-6.03-1.55-8.22-3.9c-0.3-0.32-1.05-0.3-1.58-0.28
		c-3.22,0.11-5.79-1.09-7.86-3.56c-0.44-0.52-1.32-0.87-2.03-0.92c-3.03-0.2-5.53-1.29-7.41-3.74c-0.34-0.44-0.95-0.76-1.5-0.93
		c-2.07-0.66-4.17-1.23-6.55-1.91C42.56,64.15,32.09,69.49,19.5,70.93z M57.4,42.43c1.29,1.25,2.76,2.08,4.64,2.26
		c0.67,0.06,1.5,0.43,1.91,0.94c1.83,2.24,4.2,3.06,7,3.23c0.84,0.05,1.93,0.59,2.39,1.26c1.51,2.22,3.73,3.2,6.55,2.82
		c0.72-0.1,1.93,0.3,2.23,0.85c1.41,2.57,3.85,2.94,6.32,3.22c0.44,0.05,1.25-0.53,1.4-0.98c1.25-3.78-1.04-8.94-4.69-10.69
		c-1.87-0.9-3.76-1.76-5.67-2.57c-3.08-1.31-6.35-2.29-9.25-3.91C65.6,36.26,60.05,37.59,57.4,42.43z M83.02,40.09
		c0.2-0.4,0.33-0.62,0.42-0.85c3.75-10.38,7.47-20.77,11.27-31.13c0.5-1.38-0.01-2.06-1.13-2.53c-1.14-0.48-2.29-0.88-3.09,0.64
		c-2.1,3.99-4.25,7.95-6.37,11.92c-3.19,5.98-6.38,11.96-9.65,18.08C77.35,37.53,80.11,38.78,83.02,40.09z M88.46,61.12
		c-0.88-0.15-1.63-0.14-2.24-0.41c-2-0.89-3.94-1.88-5.91-2.83c-0.74-0.35-1.48-0.9-2.25-0.97c-2.92-0.27-5.4-1.25-7.21-3.66
		c-0.23-0.3-0.65-0.51-1.03-0.64c-2.12-0.73-4.67-0.93-6.29-2.26c-2.44-1.99-5.48-2.43-7.99-4.2c-0.9,1.67-1.73,3.21-2.58,4.78
		c1.55,1.57,3.15,2.37,5.37,1.98c0.69-0.12,1.87,0.52,2.27,1.16c1.62,2.59,3.67,3.78,6.61,3.31c1.34-0.21,2.11,0.2,2.75,1.4
		c1.27,2.37,3.46,3.43,6.03,3.18c1.79-0.18,2.88,0.19,4.03,1.65c1.55,1.97,4.07,2.63,6.36,2.22c0.82-0.15,1.26-2.47,1.86-3.81
		C88.32,61.8,88.35,61.54,88.46,61.12z"/>
	<path class="st0" d="M1.12,22.93c1.33-3.42,3.52-5.87,7.43-6.1c3.97-0.23,7.42,2.6,8.13,6.54c0.67,3.73-1.76,7.61-5.46,8.73
		c-3.74,1.14-7.69-0.65-9.37-4.23c-0.24-0.51-0.48-1.01-0.73-1.51C1.12,25.22,1.12,24.08,1.12,22.93z M8.97,28.55
		c2.09-0.02,3.89-1.82,3.89-3.91c0.01-2.07-1.79-3.91-3.87-3.94c-2.16-0.04-4.03,1.84-3.98,4C5.06,26.79,6.88,28.57,8.97,28.55z"/>
	<path class="st0" d="M34.34,47.04c0.02,5.99-4.8,10.82-10.77,10.8c-5.92-0.02-10.67-4.75-10.69-10.67
		c-0.02-5.99,4.79-10.85,10.75-10.84C29.49,36.35,34.32,41.18,34.34,47.04z M23.68,53.92c3.76-0.03,6.77-3.04,6.78-6.79
		c0.02-3.77-3.18-6.92-6.94-6.86c-3.75,0.06-6.74,3.08-6.75,6.83C16.76,50.94,19.81,53.95,23.68,53.92z"/>
	<path class="st0" d="M30.47,26.54c0.02,2.05-1.78,3.91-3.85,3.97c-2.14,0.06-4.05-1.84-4.01-3.99c0.03-2.08,1.85-3.87,3.93-3.87
		C28.61,22.66,30.45,24.48,30.47,26.54z"/>
</g>
</svg>
