<?xml version="1.0" encoding="utf-8"?>
<!-- Generator: Adobe Illustrator 23.0.3, SVG Export Plug-In . SVG Version: 6.00 Build 0)  -->
<svg version="1.1" id="Layer_1" xmlns="http://www.w3.org/2000/svg" xmlns:xlink="http://www.w3.org/1999/xlink" x="0px" y="0px"
	 viewBox="0 0 100 100" style="enable-background:new 0 0 100 100;" xml:space="preserve">
<style type="text/css">
	.st0{fill:#F88A00;}
</style>
<g>
	<path class="st0" d="M22.72,39.33h-1.26v0.86v36.48v0.86h1.26H33.7h1.26v-0.86V40.19v-0.86H33.7H22.72z M26.69,73.95V42.91h3.03
		v31.05H26.69z"/>
	<path class="st0" d="M45.09,39.33h-1.15v0.86v36.48v0.86h1.15h10.02h1.15v-0.86V40.19v-0.86h-1.15H45.09z M48.71,73.95V42.91h2.77
		v31.05H48.71z"/>
	<path class="st0" d="M66.65,39.33h-1.22v0.86v36.48v0.86h1.22h10.66h1.22v-0.86V40.19v-0.86h-1.22H66.65z M70.51,73.95V42.91h2.94
		v31.05H70.51z"/>
	<path class="st0" d="M97.39,83.78h-8.7V30.25v-1h-1H64.16v-9.87v-1h-1H52.07v-5.47l8.52,2.59l1.29,0.39v-1.35V5.83V5.09l-0.71-0.22
		L49.21,1.24l-1.29-0.39V2.2v5.42v3.29v7.47H36.83h-1v1v9.87H12.31h-1v1v53.53h-8.7h-1v1V97.8v1h1h94.79h1v-1V84.78v-1H97.39z
		 M15.46,83.78V33.4h21.37h26.33h21.38v50.38H15.46z M52.08,8.56v-2.1l5.65,1.72v2.1L52.08,8.56z M39.99,29.25v-6.72h20.02v6.72
		H39.99z M5.76,94.65v-6.72h6.55h75.39h6.55v6.72H5.76z"/>
</g>
</svg>
