<?xml version="1.0" encoding="utf-8"?>
<!-- Generator: Adobe Illustrator 23.0.3, SVG Export Plug-In . SVG Version: 6.00 Build 0)  -->
<svg version="1.1" id="Layer_1" xmlns="http://www.w3.org/2000/svg" xmlns:xlink="http://www.w3.org/1999/xlink" x="0px" y="0px"
	 viewBox="0 0 100 100" style="enable-background:new 0 0 100 100;" xml:space="preserve">
<style type="text/css">
	.st0{fill:#f88a00;}
</style>
<g>
	<path class="st0" d="M47.84,93.3c0-1.17,0-2.18,0-3.19c0-23.94-0.01-47.88,0.03-71.82c0-1.15-0.35-1.62-1.4-2.01
		c-6.32-2.37-12.61-4.82-18.91-7.24c-0.31-0.12-0.62-0.22-1.1-0.39c0.13,0.34,0.18,0.55,0.28,0.74
		c5.47,10.97,10.94,21.94,16.43,32.9c0.72,1.43,0.33,2.87,0.04,4.26c-1.42,6.82-5.68,11.39-11.82,14.26
		C20.6,65.85,7.34,61.49,2.07,51.28c-1.22-2.36-1.8-4.87-1.93-7.49c-0.02-0.48,0.15-1,0.37-1.44C6.94,29.48,13.39,16.62,19.83,3.76
		c0.65-1.29,1.72-1.68,3.12-1.15c8,3.08,16,6.16,24,9.24c0.25,0.1,0.5,0.16,0.89,0.29c0-1.94,0-3.78,0-5.63
		c0-0.4-0.01-0.82,0.05-1.21c0.18-1.1,1.02-1.82,2.09-1.83c1.11-0.01,2.01,0.73,2.17,1.87c0.08,0.53,0.04,1.08,0.05,1.62
		c0,2.03,0.03,4.06-0.01,6.09c-0.01,0.66,0.22,0.94,0.81,1.17c8.55,3.25,17.09,6.51,25.62,9.83c0.63,0.24,1.3,0.81,1.6,1.4
		c5.35,10.65,10.64,21.33,15.95,32c1.1,2.21,2.25,4.39,3.31,6.61c0.71,1.47,0.26,3.01-0.07,4.46c-1.56,6.82-5.91,11.35-12.15,14.11
		c-9.52,4.2-20.76,1.37-26.97-6.64c-2.41-3.11-3.74-6.63-3.85-10.57c-0.01-0.48,0.13-1.01,0.35-1.45
		c6.02-12.02,12.05-24.02,18.08-36.03c0.07-0.15,0.13-0.31,0.25-0.59c-7.6-2.92-15.17-5.84-22.85-8.79c0,24.95,0,49.78,0,74.75
		c0.44,0,0.87,0,1.29,0c5.14,0,10.28-0.01,15.42,0c1.85,0,2.95,1.46,2.29,2.99c-0.41,0.94-1.18,1.33-2.19,1.33
		c-2.03-0.01-4.06,0-6.09,0c-10.75,0-21.5,0-32.26,0c-1.64,0-2.68-0.95-2.56-2.32c0.1-1.23,1.02-1.98,2.48-1.99
		c5.27-0.01,10.55,0,15.82,0C46.88,93.3,47.28,93.3,47.84,93.3z M78.17,31.04c-5.38,10.73-10.67,21.28-16.01,31.92
		c10.69,0,21.24,0,31.92,0C88.77,52.32,83.52,41.79,78.17,31.04z M21.89,9.39C16.51,20.12,11.21,30.68,5.87,41.35
		c10.73,0,21.26,0,31.95,0C32.5,30.69,27.24,20.12,21.89,9.39z M38.98,45.75c-11.48,0-22.82,0-34.26,0
		c0.06,0.39,0.09,0.72,0.16,1.04c0.6,2.56,1.85,4.77,3.69,6.65c6.78,6.91,19.8,6.89,26.56-0.03C37.19,51.3,38.51,48.81,38.98,45.75z
		 M60.96,67.42c0.54,3.31,2.02,6.07,4.48,8.22c5.15,4.5,11.18,5.43,17.65,3.98c4.92-1.1,8.76-3.82,11-8.45
		c0.56-1.15,0.86-2.43,1.31-3.75C83.78,67.42,72.41,67.42,60.96,67.42z"/>
</g>
</svg>
