<?xml version="1.0" encoding="utf-8"?>
<!-- Generator: Adobe Illustrator 23.0.3, SVG Export Plug-In . SVG Version: 6.00 Build 0)  -->
<svg version="1.1" id="Layer_1" xmlns="http://www.w3.org/2000/svg" xmlns:xlink="http://www.w3.org/1999/xlink" x="0px" y="0px"
	 viewBox="0 0 100 100" style="enable-background:new 0 0 100 100;" xml:space="preserve">
<style type="text/css">
	.st0{fill:#f88a00;}
</style>
<g>
	<path class="st0" d="M99.1,62.45c-0.15,0.68-0.28,1.37-0.44,2.05c-1.08,4.48-3.35,7.84-6.86,9.95c-0.72,0.43-0.91,0.92-0.91,1.81
		c0,1.84,0.06,3.72-0.23,5.52c-0.96,6-5.72,10.15-10.84,9.61c-5.17-0.55-9.17-5.53-9.33-11.64c-0.03-1.12,0-2.25,0-3.47
		c-13.68,0-27.26,0-40.95,0c0,1.07,0.01,2.08,0,3.09c-0.07,6.33-4.03,11.44-9.31,12.02c-5.21,0.57-10.01-3.69-10.93-9.9
		c-0.27-1.8-0.16-3.68-0.17-5.53c0-0.69-0.17-1.04-0.71-1.38C3.54,71.57,1,66.8,0.93,60.29c-0.05-4.3,0.01-8.6-0.01-12.9
		c-0.02-4.42,1.62-7.57,5.06-9.37c0.08-0.04,0.15-0.11,0.32-0.22c-0.94-0.78-1.86-1.5-2.74-2.27c-1.19-1.03-1.44-2.42-0.7-3.6
		c0.76-1.21,1.96-1.21,3.21-0.22c1.69,1.33,3.45,2.54,5.31,3.88c0.25-0.58,0.42-0.93,0.56-1.28c2.35-5.94,4.71-11.87,7.04-17.82
		c2.08-5.3,5.57-7.93,10.54-7.92c13.8,0.02,27.61-0.01,41.41,0.02c4.6,0.01,7.94,2.56,9.9,7.45c2.45,6.09,4.79,12.24,7.19,18.36
		c0.13,0.34,0.28,0.66,0.46,1.08c2.03-0.96,3.9-2.16,5.6-3.69c0.7-0.63,1.43-0.84,2.24-0.44c1.43,0.71,1.66,2.87,0.44,4.09
		c-0.46,0.46-0.97,0.86-1.47,1.26c-0.5,0.4-1.02,0.76-1.62,1.21c0.21,0.15,0.37,0.3,0.54,0.39c2.53,1.35,4.13,3.59,4.74,6.8
		c0.03,0.14,0.11,0.25,0.17,0.38C99.1,51.13,99.1,56.79,99.1,62.45z M49.95,71.33c0-0.01,0-0.02,0-0.04c7.7,0,15.4,0,23.1,0
		c4.34,0,8.69,0.09,13.03,0.01c4.56-0.08,8.47-4.14,8.77-9.49c0.29-5.03,0.16-10.1,0.11-15.15c-0.02-1.83-0.93-3.16-2.38-3.91
		c-1.17-0.6-2.33-1.22-3.52-1.76c-0.32-0.15-0.76-0.18-1.07-0.05c-10.58,4.49-21.58,6.07-32.72,6.55
		c-7.06,0.3-14.12,0.04-21.15-0.89c-6.48-0.86-12.93-2.04-19.09-4.6c-2.51-1.04-4.67-1.19-7.07,0.24c-2.08,1.24-2.96,2.43-2.97,5.2
		c0,4.11,0.08,8.23-0.01,12.34c-0.16,7.05,4.61,11.67,9.7,11.61C26.43,71.22,38.19,71.33,49.95,71.33z M15.31,37.16
		c11.4,4.2,22.97,5.59,34.71,5.6c11.71,0.01,23.27-1.36,34.59-5.51c-2.53-6.48-4.99-12.77-7.44-19.06
		c-1.25-3.21-3.38-4.81-6.36-4.82c-3.96-0.01-7.92,0-11.88,0c-9.9,0-19.81,0-29.71,0.01c-3.02,0-5.17,1.62-6.43,4.88
		c-0.68,1.75-1.38,3.48-2.07,5.22C18.94,27.98,17.16,32.48,15.31,37.16z M13.19,76.24c0,1.16-0.02,2.25,0,3.34
		c0.08,3.47,2.28,6.39,5.2,6.92c2.94,0.53,5.85-1.43,6.67-4.77c0.42-1.72,0.37-3.59,0.55-5.48C21.32,76.24,17.31,76.24,13.19,76.24z
		 M74.55,76.24c0,1.19-0.02,2.24,0,3.29c0.07,3.6,2.33,6.51,5.45,7.01c2.85,0.46,5.79-1.72,6.51-5.09c0.36-1.67,0.29-3.47,0.41-5.21
		C82.69,76.24,78.68,76.24,74.55,76.24z"/>
	<path class="st0" d="M49.99,61.72c-5.27,0-10.54,0-15.81,0c-0.22,0-0.45,0.01-0.67-0.02c-1.14-0.17-1.91-1.14-1.91-2.4
		c0-1.31,0.79-2.36,1.98-2.43c1.34-0.08,2.68-0.03,4.02-0.03c9.33,0,18.65,0,27.98,0c0.32,0,0.64-0.02,0.96,0.03
		c1.13,0.17,1.89,1.18,1.87,2.44c-0.02,1.21-0.76,2.18-1.84,2.36c-0.31,0.05-0.64,0.04-0.96,0.04
		C60.41,61.71,55.2,61.71,49.99,61.72C49.99,61.71,49.99,61.71,49.99,61.72z"/>
	<path class="st0" d="M88.59,57.11c0.02,4.04-2.68,7.28-6.09,7.32c-3.36,0.03-6.16-3.26-6.18-7.25c-0.01-3.94,2.72-7.2,6.07-7.23
		C85.83,49.9,88.57,53.08,88.59,57.11z M82.47,59.55c1.11,0.01,2.02-1.03,2.05-2.32c0.02-1.34-0.91-2.47-2.03-2.47
		c-1.14,0-2.04,1.09-2.03,2.46C80.47,58.54,81.33,59.54,82.47,59.55z"/>
	<path class="st0" d="M17,49.94c3.36-0.02,6.12,3.18,6.16,7.12c0.03,4.06-2.74,7.38-6.17,7.36c-3.33-0.01-6.1-3.28-6.11-7.21
		C10.88,53.18,13.58,49.96,17,49.94z M17.02,59.54c1.11,0,2.02-1.03,2.04-2.33c0.02-1.34-0.91-2.47-2.04-2.46
		c-1.14,0.01-2.07,1.13-2.05,2.46C15,58.51,15.9,59.54,17.02,59.54z"/>
	<path class="st0" d="M38.04,15.95c0.57,0.53,1.21,0.94,1.63,1.56c0.49,0.74,0.36,1.65-0.06,2.44c-0.12,0.22-0.28,0.41-0.44,0.59
		c-4.04,4.51-8.09,9.02-12.12,13.54c-0.67,0.75-1.48,1.13-2.26,0.65c-0.55-0.34-1.14-1.1-1.26-1.78c-0.11-0.68,0.17-1.71,0.6-2.2
		c4.09-4.67,8.24-9.27,12.39-13.85C36.87,16.51,37.39,16.35,38.04,15.95z"/>
	<path class="st0" d="M29.69,16.22c1.08,0.02,1.69,0.52,2.05,1.4c0.37,0.89,0.31,1.85-0.29,2.52c-1.58,1.75-3.19,3.46-4.86,5.1
		c-0.8,0.79-1.98,0.52-2.67-0.41c-0.69-0.93-0.74-2.31,0.04-3.17c1.56-1.73,3.17-3.38,4.8-5.01C29.05,16.35,29.51,16.3,29.69,16.22z
		"/>
</g>
</svg>
