<?xml version="1.0" encoding="utf-8"?>
<!-- Generator: Adobe Illustrator 23.0.3, SVG Export Plug-In . SVG Version: 6.00 Build 0)  -->
<svg version="1.1" id="Layer_1" xmlns="http://www.w3.org/2000/svg" xmlns:xlink="http://www.w3.org/1999/xlink" x="0px" y="0px"
	 viewBox="0 0 100 100" style="enable-background:new 0 0 100 100;" xml:space="preserve">
<style type="text/css">
	.st0{fill:#f88a00;}
</style>
<g>
	<path class="st0" d="M96.73,82.86c0.47,0,0.81-0.02,1.14,0c0.84,0.06,1.35,0.52,1.35,1.36c0.02,4.56,0.02,9.11-0.01,13.67
		c-0.01,0.95-0.55,1.34-1.67,1.35c-3.09,0.02-6.19,0.01-9.28,0.01c-5.88,0-11.76,0-17.65-0.01c-1.77,0-2.09-0.32-2.09-2.07
		c0-4.08,0-8.16,0-12.24c0-1.73,0.35-2.07,2.09-2.08c0.4,0,0.8,0,1.32,0c0-1.58-0.01-3.07,0-4.56c0.01-1.63,0.37-1.99,1.98-2
		c0.95-0.01,1.9,0,2.94,0c0.04-0.33,0.09-0.62,0.1-0.91c0.61-13.48,1.23-26.97,1.84-40.45c0-0.1,0-0.21,0.02-0.31
		c0.26-1.24-0.09-2.18-0.96-3.19c-0.83-0.96-1.19-2.32-1.81-3.48c-0.2-0.39-0.47-0.83-0.83-1.03c-6.49-3.5-13-6.95-19.49-10.44
		c-0.51-0.28-0.88-0.25-1.38,0.03c-0.62,0.35-1.3,0.6-1.97,0.8c-0.51,0.16-1.05,0.21-0.9,0.93c0.13,0.64-0.41,1.42,0.71,1.84
		c3.22,1.18,4.76,4.83,3.5,7.95c-1.24,3.08-4.81,4.55-7.97,3.28c-1.55-0.63-2.85-1.58-3.72-3.05c-0.55-0.92-0.39-1.7,0.39-2.23
		c0.76-0.51,1.48-0.26,2.2,0.54c0.63,0.69,1.35,1.34,2.14,1.83c1.09,0.69,2.23,0.5,3.23-0.27c1.06-0.81,1.35-1.96,1.06-3.2
		c-0.28-1.22-1.1-2-2.34-2.3c-0.26-0.06-0.54-0.09-0.81-0.12c-0.89-0.09-1.34-0.6-1.35-1.48c-0.01-0.82-0.06-1.64,0.01-2.45
		c0.07-0.8-0.19-1.16-1-1.42c-3.74-1.18-6.09-4.65-5.9-8.57c0.19-3.75,2.93-6.87,6.75-7.68c3.81-0.81,7.67,1.12,9.44,4.64
		c0.26,0.52,0.78,1.04,1.3,1.27c7.72,3.44,15.46,6.84,23.21,10.22c0.45,0.2,0.98,0.29,1.47,0.28c3.89-0.1,7.07,1.77,8.56,5.09
		c1.49,3.31,0.78,6.97-1.87,9.79c-0.26,0.28-0.46,0.76-0.44,1.14c0.48,10.94,1,21.87,1.5,32.81c0.15,3.33,0.29,6.65,0.45,10.12
		c1.03,0,2.01-0.01,2.98,0c1.24,0.02,1.71,0.49,1.73,1.74C96.74,79.59,96.73,81.15,96.73,82.86z M81.83,34.49
		c-0.65,13.85-1.31,27.78-1.96,41.73c3.15,0,6.15,0,9.23,0c-0.66-14.02-1.32-27.95-1.96-41.73C85.31,34.49,83.63,34.49,81.83,34.49z
		 M71.54,96.23c8.3,0,16.47,0,24.68,0c0-3.47,0-6.88,0-10.3c-8.26,0-16.46,0-24.68,0C71.54,89.4,71.54,92.78,71.54,96.23z
		 M79.09,18.8c-6.67-2.92-13.5-5.9-20.25-8.85c-0.49,1.41-0.93,2.67-1.39,3.99c6.16,3.28,12.36,6.59,18.31,9.76
		C76.92,22,77.98,20.43,79.09,18.8z M78.86,26.06c0.33,3.57,2.86,5.86,6.15,5.58c2.97-0.25,5.39-3.11,5.13-6.04
		c-0.28-3.12-3.01-5.52-6-5.27C81.06,20.59,78.6,23.25,78.86,26.06z M50.11,14.73c2.72,0.3,5.59-2.46,5.59-5.4
		c-0.01-3-2.44-5.54-5.46-5.6c-3.01-0.06-5.54,2.41-5.58,5.44C44.61,12.38,46.89,14.7,50.11,14.73z M93.65,79.33
		c-6.27,0-12.46,0-18.66,0c0,1.2,0,2.33,0,3.46c6.25,0,12.42,0,18.66,0C93.65,81.63,93.65,80.53,93.65,79.33z"/>
	<path class="st0" d="M9.71,30.44c0-1.86-0.01-3.59,0-5.32c0.01-1.58,0.42-2,2-2c7.38-0.01,14.75-0.01,22.13,0
		c1.55,0,1.98,0.45,1.98,2.03c0.01,1.72,0,3.45,0,5.29c2.24,0,4.37,0,6.5,0c1.95,0,2.32,0.37,2.32,2.32c0,12.85,0,25.7,0,38.55
		c0,0.37,0,0.73,0,1.23c0.5,0,0.9,0,1.29,0c7.28,0,14.55,0,21.83,0c0.31,0,0.61-0.01,0.92,0.01c0.97,0.09,1.51,0.67,1.49,1.59
		c-0.02,0.8-0.63,1.37-1.57,1.37c-3.43,0.01-6.87,0.01-10.3,0.01c-4.22,0-8.43,0-12.65,0c-0.3,0-0.6,0.03-1,0.05
		c0,0.45,0,0.85,0,1.25c0,6.77,0,13.53,0,20.3c0,1.56-0.45,2.01-2,2.01c-13.29,0-26.58,0-39.88,0c-1.57,0-2-0.42-2-1.99
		c0-21.62,0-43.24,0-64.86c0-1.37,0.47-1.82,1.85-1.82C4.93,30.44,7.24,30.44,9.71,30.44z M3.8,33.49c0,20.94,0,41.76,0,62.57
		c12.65,0,25.21,0,37.77,0c0-20.89,0-41.72,0-62.57C28.95,33.49,16.41,33.49,3.8,33.49z M32.83,26.22c-6.76,0-13.43,0-20.09,0
		c0,1.43,0,2.78,0,4.12c6.73,0,13.4,0,20.09,0C32.83,28.94,32.83,27.62,32.83,26.22z"/>
	<path class="st0" d="M56.64,71.21c-2.38,0-4.76,0.01-7.14,0c-1.42-0.01-1.9-0.48-1.9-1.9c-0.01-4.76-0.01-9.52,0-14.28
		c0-1.43,0.47-1.9,1.91-1.9c4.76-0.01,9.52-0.01,14.28,0c1.42,0,1.9,0.48,1.9,1.9c0.01,4.76,0.01,9.52,0,14.28
		c0,1.43-0.47,1.89-1.9,1.89C61.4,71.22,59.02,71.21,56.64,71.21z M62.64,56.2c-4.06,0-8.01,0-11.96,0c0,4.02,0,7.98,0,11.93
		c4.02,0,7.97,0,11.96,0C62.64,64.12,62.64,60.19,62.64,56.2z"/>
	<path class="st0" d="M47.6,42.36c0-2.38-0.01-4.76,0-7.13c0.01-1.49,0.46-1.94,1.96-1.94c4.76,0,9.51-0.01,14.27,0
		c1.36,0,1.85,0.48,1.85,1.84c0.01,4.86,0.01,9.72,0,14.58c0,1.26-0.54,1.78-1.82,1.78c-4.79,0.01-9.58,0.01-14.37,0
		c-1.44,0-1.89-0.46-1.9-1.89C47.59,47.18,47.6,44.77,47.6,42.36z M62.6,48.49c0-4.07,0-8.03,0-11.98c-4.03,0-7.98,0-11.91,0
		c0,4.04,0,8,0,11.98C54.69,48.49,58.62,48.49,62.6,48.49z"/>
	<path class="st0" d="M14.26,66.41c1.49,0,2.99-0.01,4.48,0c1.38,0.01,1.86,0.48,1.87,1.82c0.01,2.68,0.01,5.36,0,8.05
		c-0.01,1.21-0.53,1.77-1.72,1.78c-3.16,0.02-6.31,0.02-9.47,0c-1.19-0.01-1.64-0.51-1.64-1.71c-0.01-2.72-0.01-5.43,0-8.15
		c0-1.29,0.47-1.76,1.8-1.77C11.13,66.4,12.69,66.42,14.26,66.41C14.26,66.42,14.26,66.42,14.26,66.41z M10.82,75.03
		c2.32,0,4.5,0,6.7,0c0-1.9,0-3.74,0-5.57c-2.27,0-4.46,0-6.7,0C10.82,71.34,10.82,73.15,10.82,75.03z"/>
	<path class="st0" d="M31.04,66.42c1.56,0,3.13-0.02,4.69,0.01c1.26,0.02,1.73,0.49,1.74,1.75c0.02,2.68,0.02,5.37,0,8.05
		c-0.01,1.23-0.59,1.84-1.81,1.85c-3.09,0.02-6.19,0.02-9.28,0c-1.29-0.01-1.73-0.46-1.74-1.72c-0.01-2.72-0.02-5.44,0-8.16
		c0.01-1.33,0.44-1.75,1.8-1.77C27.98,66.4,29.51,66.42,31.04,66.42z M27.56,69.46c0,1.89,0,3.73,0,5.58c2.28,0,4.46,0,6.68,0
		c0-1.89,0-3.73,0-5.58C31.98,69.46,29.79,69.46,27.56,69.46z"/>
	<path class="st0" d="M14.2,46.74c-1.56,0-3.12,0.01-4.69,0C8.28,46.72,7.77,46.22,7.77,45c-0.01-2.72-0.01-5.43,0-8.15
		c0.01-1.29,0.49-1.76,1.81-1.76c3.09-0.01,6.18-0.01,9.27,0c1.3,0,1.76,0.48,1.77,1.8c0.01,2.65,0.01,5.3,0,7.94
		c-0.01,1.38-0.53,1.88-1.92,1.89C17.19,46.74,15.69,46.73,14.2,46.74z M10.85,38.11c0,1.91,0,3.73,0,5.54c2.27,0,4.46,0,6.67,0
		c0-1.88,0-3.69,0-5.54C15.28,38.11,13.11,38.11,10.85,38.11z"/>
	<path class="st0" d="M31.09,35.1c1.53,0,3.06-0.01,4.59,0c1.29,0.01,1.77,0.43,1.78,1.68c0.03,2.72,0.02,5.44,0,8.16
		c-0.01,1.22-0.62,1.79-1.86,1.79c-3.06,0.01-6.12,0.01-9.18,0c-1.31,0-1.78-0.46-1.78-1.79c-0.02-2.72-0.01-5.44,0-8.16
		c0.01-1.25,0.47-1.69,1.75-1.69C27.97,35.09,29.53,35.1,31.09,35.1z M27.54,43.65c2.28,0,4.49,0,6.71,0c0-1.88,0-3.69,0-5.53
		c-2.27,0-4.46,0-6.71,0C27.54,39.97,27.54,41.75,27.54,43.65z"/>
	<path class="st0" d="M14.25,50.77c1.56,0,3.12-0.02,4.68,0.01c1.19,0.02,1.66,0.5,1.67,1.69c0.01,2.72,0.02,5.43,0,8.15
		c-0.01,1.23-0.57,1.79-1.82,1.8c-3.09,0.01-6.18,0.01-9.27-0.01c-1.25-0.01-1.74-0.51-1.75-1.73c-0.01-2.72-0.01-5.43,0-8.15
		c0.01-1.3,0.46-1.74,1.8-1.76C11.13,50.76,12.69,50.77,14.25,50.77z M17.53,59.35c0-1.89,0-3.71,0-5.56c-2.26,0-4.45,0-6.7,0
		c0,1.88,0,3.69,0,5.56C13.06,59.35,15.25,59.35,17.53,59.35z"/>
	<path class="st0" d="M14.19,93.72c-1.56,0-3.12,0.01-4.69,0c-1.27-0.01-1.73-0.46-1.74-1.71c-0.01-2.72-0.01-5.43,0-8.15
		c0.01-1.28,0.49-1.77,1.81-1.77c3.09-0.01,6.18-0.01,9.27,0c1.24,0.01,1.75,0.51,1.76,1.73c0.02,2.72,0.01,5.43,0,8.15
		c-0.01,1.22-0.53,1.74-1.73,1.76C17.32,93.73,15.76,93.72,14.19,93.72z M17.52,90.71c0-1.89,0-3.72,0-5.56c-2.27,0-4.46,0-6.68,0
		c0,1.87,0,3.69,0,5.56C13.09,90.71,15.28,90.71,17.52,90.71z"/>
	<path class="st0" d="M30.95,93.72c-1.56,0-3.13,0.02-4.69-0.01c-1.15-0.02-1.6-0.46-1.61-1.62c-0.02-2.79-0.02-5.57,0-8.36
		c0.01-1.13,0.49-1.63,1.62-1.64c3.19-0.02,6.39-0.03,9.59,0c1.06,0.01,1.59,0.51,1.6,1.57c0.03,2.82,0.03,5.64,0,8.46
		c-0.01,1.04-0.63,1.58-1.72,1.59C34.15,93.74,32.55,93.72,30.95,93.72z M34.25,90.73c0-1.92,0-3.74,0-5.56c-2.28,0-4.5,0-6.68,0
		c0,1.9,0,3.71,0,5.56C29.84,90.73,32,90.73,34.25,90.73z"/>
	<path class="st0" d="M31.1,50.77c1.56,0,3.13-0.02,4.69,0c1.2,0.02,1.67,0.47,1.68,1.68c0.02,2.68,0.02,5.37,0,8.05
		c-0.01,1.31-0.58,1.89-1.86,1.9c-3.06,0.02-6.12,0.02-9.18,0c-1.31-0.01-1.78-0.49-1.79-1.79c-0.01-2.68-0.01-5.37,0-8.05
		c0.01-1.35,0.43-1.78,1.76-1.79C27.97,50.76,29.54,50.77,31.1,50.77C31.1,50.77,31.1,50.77,31.1,50.77z M34.26,59.37
		c0-1.91,0-3.73,0-5.59c-2.25,0-4.44,0-6.69,0c0,1.89,0,3.73,0,5.59C29.82,59.37,31.99,59.37,34.26,59.37z"/>
</g>
</svg>
