<?xml version="1.0" encoding="utf-8"?>
<!-- Generator: Adobe Illustrator 23.0.3, SVG Export Plug-In . SVG Version: 6.00 Build 0)  -->
<svg version="1.1" id="Layer_1" xmlns="http://www.w3.org/2000/svg" xmlns:xlink="http://www.w3.org/1999/xlink" x="0px" y="0px"
	 viewBox="0 0 100 100" style="enable-background:new 0 0 100 100;" xml:space="preserve">
<style type="text/css">
	.st0{fill:#F88A00;}
</style>
<path class="st0" d="M90.57,51.84c1.57,0.04,3.06,0.08,4.46-0.11c1.33-0.19,2.66-0.79,2.98-1.36c0.07-0.33-0.48-1.77-1.16-2.46
	C82.81,33.75,68.46,19.42,54.58,5.57l-2.43-2.43c-1.99-1.99-2.27-1.99-4.27,0c-5.2,5.17-10.39,10.34-15.57,15.52l-9.69,9.65
	C16.15,34.75,9.45,41.42,2.95,48.05c-0.62,0.63-1.09,2.08-0.89,2.73c0.16,0.27,1.32,0.82,2.43,0.95c1.49,0.17,3.06,0.13,4.73,0.1
	c0.76-0.02,1.55-0.03,2.37-0.03h1v1c0,1.31,0,2.28,0.01,3.29l0,12.97c0,8.64,0,17.29,0,25.93c0,3.21,0.2,3.4,3.48,3.4l22.65,0
	c15.09,0,30.19,0,45.28,0c3.05,0,3.3-0.25,3.3-3.31V51.8h1C89.1,51.8,89.85,51.82,90.57,51.84z M84.37,49.25
	c-0.53,0.61-0.53,2.29-0.53,5.07v40.36H16.08V52.7c0-2.05-0.03-3.43-0.44-3.86c-0.4-0.42-1.74-0.49-3.72-0.54
	c-0.32-0.01-0.63-0.04-0.85-0.06l-0.18-0.02l-2.22-0.13L49.88,6.88l39.31,39.3c0.13,0.01,0.25,0.05,0.35,0.1l0.82,0.39l-0.6,1.71
	l-0.18-0.04l-0.4,0.66l-0.72-0.72C86.22,48.52,84.85,48.71,84.37,49.25z"/>
<g>
	<polygon class="st0" points="62.93,38.46 34.09,83.46 36.78,83.46 65.62,38.46 	"/>
	<path class="st0" d="M39.18,38.59c-2.57,0-4.69,0.89-6.51,2.72c-1.81,1.83-2.69,3.97-2.69,6.55c0,2.55,0.89,4.68,2.71,6.52
		c1.82,1.83,3.95,2.72,6.49,2.72c2.54,0,4.67-0.89,6.49-2.72c1.82-1.84,2.71-3.97,2.71-6.52c0-2.58-0.88-4.72-2.69-6.55
		C43.88,39.48,41.75,38.59,39.18,38.59z M43.55,52.28c-1.21,1.21-2.71,1.83-4.44,1.83c-1.7,0-3.19-0.61-4.43-1.83
		c-1.24-1.22-1.87-2.7-1.87-4.41c0-1.72,0.62-3.21,1.84-4.44c1.23-1.23,2.72-1.85,4.45-1.85c1.74,0,3.24,0.61,4.46,1.82
		c1.22,1.22,1.84,2.72,1.84,4.47C45.4,49.58,44.78,51.07,43.55,52.28z"/>
	<path class="st0" d="M60.8,83.26c2.57,0,4.7-0.87,6.52-2.65c1.82-1.77,2.7-3.87,2.7-6.42c0-2.55-0.89-4.67-2.71-6.49
		c-1.83-1.82-3.96-2.71-6.5-2.71c-2.56,0-4.7,0.88-6.55,2.69c-1.82,1.81-2.71,3.94-2.71,6.51c0,2.54,0.88,4.64,2.7,6.42
		C56.07,82.39,58.21,83.26,60.8,83.26z M56.35,69.82c1.21-1.22,2.69-1.84,4.39-1.84c1.74,0,3.24,0.61,4.46,1.81
		c1.22,1.21,1.84,2.7,1.84,4.42c0,1.75-0.62,3.25-1.83,4.47c-1.22,1.22-2.72,1.83-4.47,1.83c-1.7,0-3.18-0.62-4.39-1.85
		c-1.2-1.23-1.81-2.72-1.81-4.44C54.54,72.52,55.15,71.04,56.35,69.82z"/>
</g>
</svg>
