<?xml version="1.0" encoding="utf-8"?>
<!-- Generator: Adobe Illustrator 23.0.3, SVG Export Plug-In . SVG Version: 6.00 Build 0)  -->
<svg version="1.1" id="Layer_1" xmlns="http://www.w3.org/2000/svg" xmlns:xlink="http://www.w3.org/1999/xlink" x="0px" y="0px"
	 viewBox="0 0 100 100" style="enable-background:new 0 0 100 100;" xml:space="preserve">
<style type="text/css">
	.st0{fill:#F88A00;}
</style>
<g>
	<path class="st0" d="M10.23,41.11c-1.76,0-3.28-0.05-4.8,0.01c-1.33,0.05-1.96-0.46-1.94-1.83c0.03-3.05-0.05-6.1,0.05-9.15
		c0.02-0.63,0.5-1.46,1.02-1.81c6.06-4,12.13-7.99,18.29-11.82c0.99-0.61,2.46-0.58,3.71-0.59c1.14-0.01,1.75-0.31,2.25-1.41
		c4.14-8.99,11.21-13.98,21.1-13.98c9.94,0,17.11,4.92,21.25,14.02c0.47,1.02,0.99,1.49,2.09,1.33c2.09-0.31,3.81,0.45,5.55,1.61
		c5.35,3.59,10.78,7.06,16.21,10.51c1.06,0.67,1.52,1.4,1.48,2.68c-0.09,2.81-0.07,5.63-0.01,8.44c0.03,1.43-0.53,2.04-1.97,1.99
		c-1.52-0.06-3.04-0.01-4.85-0.01c0,0.83,0,1.56,0,2.29c0,17.65,0,35.3,0,52.95c0,2.89-0.18,3.09-3.07,3.09
		c-24.51,0-49.03,0-73.54-0.01c-2.77,0-2.84-0.08-2.84-2.89c0-17.71,0-35.42,0-53.13C10.23,42.73,10.23,42.04,10.23,41.11z
		 M86.88,41.11c-6.56,0-12.95,0-19.33,0c-0.7,0-1.42-0.08-2.11,0.04c-0.54,0.1-1.09,0.39-1.55,0.72
		c-8.54,6.27-19.23,6.28-27.81,0.08c-0.65-0.47-1.58-0.79-2.38-0.8c-6.39-0.06-12.78-0.04-19.17-0.03c-0.5,0-1,0.07-1.45,0.1
		c0,18.57,0,36.95,0,55.38c2.32,0,4.51,0,6.9,0c0-0.86,0-1.61,0-2.36c0-8.27,0-16.53-0.01-24.8c0-2.72,0.12-2.85,2.89-2.84
		c6.27,0,12.53,0.05,18.8,0.01c2.68-0.02,3,0.2,3.01,2.97c0,8.33,0,16.65,0,24.98c0,0.68,0,1.36,0,2c14.21,0,28.18,0,42.2,0
		C86.88,78.05,86.88,59.71,86.88,41.11z M70.34,23.48C70.28,12.31,61.05,3.15,49.89,3.16c-11.05,0.01-20.34,9.4-20.26,20.49
		c0.08,11.05,9.36,20.28,20.35,20.22C61.18,43.81,70.41,34.57,70.34,23.48z M41.82,69.44c-0.69-0.03-1.26-0.08-1.84-0.08
		c-5.16-0.01-10.32,0.05-15.48-0.04c-1.47-0.02-1.89,0.41-1.88,1.87c0.07,7.86,0.03,15.71,0.04,23.57c0,0.62,0.07,1.24,0.1,1.85
		c6.46,0,12.71,0,19.05,0C41.82,87.56,41.82,78.61,41.82,69.44z M31.94,38.28c-1.11-2.03-2.21-3.83-3.08-5.73
		c-0.49-1.06-1.03-1.45-2.21-1.44c-6.27,0.06-12.53,0.03-18.8,0.04c-0.51,0-1.02,0.07-1.59,0.11c0,2.39,0,4.66,0,7.02
		C14.87,38.28,23.38,38.28,31.94,38.28z M93.67,31.15c-7.16,0-14.11-0.01-21.06,0.02c-0.35,0-0.87,0.2-1.02,0.47
		c-1.2,2.17-2.32,4.37-3.5,6.62c8.48,0,16.98,0,25.58,0C93.67,35.9,93.67,33.65,93.67,31.15z M27.15,18.71
		c-1.4-0.26-2.76-0.1-4.12,0.87c-2.37,1.69-4.9,3.16-7.34,4.75c-1.91,1.24-3.81,2.51-6.02,3.98c6.18,0,11.92,0,17.48,0
		C27.15,25.05,27.15,21.92,27.15,18.71z M90.26,28.34c-0.66-0.48-1.02-0.76-1.39-1c-4.03-2.61-8.09-5.16-12.07-7.85
		c-1.34-0.91-2.65-1.02-3.99-0.77c0,3.24,0,6.37,0,9.62C78.4,28.34,84.12,28.34,90.26,28.34z"/>
	<path class="st0" d="M67.27,74.17c4.57,0,9.14,0.03,13.72-0.02c1.49-0.02,2.12,0.54,2.1,2.06c-0.05,4.28-0.05,8.56,0,12.84
		c0.02,1.53-0.64,2.06-2.11,2.06c-9.08-0.04-18.17-0.05-27.25,0c-1.55,0.01-2.08-0.61-2.07-2.08c0.04-4.28,0.05-8.56-0.01-12.84
		c-0.02-1.53,0.58-2.06,2.09-2.04C58.24,74.21,62.76,74.17,67.27,74.17z M80.19,77.02c-8.66,0-17.17,0-25.76,0c0,3.8,0,7.46,0,11.22
		c8.63,0,17.14,0,25.76,0C80.19,84.5,80.19,80.84,80.19,77.02z"/>
	<path class="st0" d="M67.43,54.79c4.45,0,8.9,0.04,13.35-0.02c1.64-0.02,2.33,0.54,2.3,2.24c-0.07,4.16-0.07,8.33,0,12.49
		c0.03,1.69-0.66,2.26-2.31,2.25c-8.97-0.05-17.94-0.05-26.92,0c-1.58,0.01-2.23-0.53-2.22-2.13c0.04-4.16-0.03-8.32-0.03-12.49
		c0-2.15,0.18-2.33,2.29-2.34C58.41,54.78,62.92,54.79,67.43,54.79z M54.32,68.83c8.79,0,17.31,0,25.86,0c0-3.84,0-7.55,0-11.4
		c-8.37,0-16.61-0.01-24.85,0.05c-0.34,0-0.96,0.67-0.97,1.04C54.29,61.91,54.32,65.3,54.32,68.83z"/>
	<path class="st0" d="M54.22,12.26c4.43,0.27,7,1.93,8.35,5.1c1.3,3.07,0.75,6-1.59,8.42c-2.84,2.95-5.74,5.85-8.68,8.69
		c-3.21,3.09-7.87,3.01-11.02-0.09c-3.17-3.12-3.35-7.79-0.28-11.02c2.9-3.05,5.82-6.11,8.97-8.89
		C51.32,13.27,53.27,12.73,54.22,12.26z M48.57,19.59c2.58,2.56,4.96,4.94,7.45,7.41c0.92-0.96,2-2.04,3.03-3.16
		c1.94-2.1,1.92-4.87-0.02-6.96c-2.02-2.17-4.87-2.43-7.07-0.55C50.71,17.39,49.59,18.6,48.57,19.59z M46.35,22.09
		c-1.26,1.22-2.66,2.38-3.8,3.75c-1.64,2-1.27,4.7,0.69,6.62c1.94,1.89,4.69,2.15,6.65,0.45c1.31-1.13,2.42-2.48,3.54-3.64
		C51.05,26.87,48.7,24.47,46.35,22.09z"/>
</g>
</svg>
