<?xml version="1.0" encoding="utf-8"?>
<!-- Generator: Adobe Illustrator 23.0.3, SVG Export Plug-In . SVG Version: 6.00 Build 0)  -->
<svg version="1.1" id="Layer_1" xmlns="http://www.w3.org/2000/svg" xmlns:xlink="http://www.w3.org/1999/xlink" x="0px" y="0px"
	 viewBox="0 0 100 100" style="enable-background:new 0 0 100 100;" xml:space="preserve">
<style type="text/css">
	.st0{fill:#F88A00;}
</style>
<g>
	<g>
		<path class="st0" d="M8.19,25.23c0.07-0.42,0.19-0.83,0.19-1.25c0.01-4.85,0.01-9.71,0.01-14.56c0-1.6,0.32-1.92,1.9-1.93
			c0.73,0,1.46-0.01,2.18,0c1.3,0.02,1.73,0.43,1.73,1.76c0.01,4.69,0,9.38,0,14.07c0,0.62,0,1.23,0,1.85
			c0.15,0.01,0.3,0.03,0.46,0.04c0.07-0.41,0.2-0.82,0.21-1.23c0.01-4.77,0-9.55,0.01-14.32c0-1.94,0.24-2.17,2.15-2.18
			c0.77,0,1.54,0,2.31,0c1.48,0.01,1.86,0.38,1.86,1.88c0.01,5.26,0.03,10.52-0.01,15.77c-0.02,1.97-0.08,3.97-0.36,5.92
			c-0.44,2.98-1.86,5.5-4.21,7.42c-0.92,0.75-1.27,1.58-1.26,2.79c0.06,8.74,0.03,37.47,0.03,46.21c0,0.52-0.03,1.05-0.12,1.57
			c-0.42,2.2-2.31,3.7-4.4,3.51c-2.11-0.19-3.64-1.96-3.64-4.26C7.2,79.27,7.18,50.25,7.23,41.23c0.01-1.15-0.29-1.95-1.19-2.68
			c-3.14-2.53-4.54-5.98-4.62-9.89C1.3,22.14,1.38,15.63,1.37,9.12c0-1.11,0.51-1.64,1.62-1.63c0.97,0.01,1.94,0,2.91,0.01
			c1.4,0.01,1.78,0.39,1.78,1.81c0.01,4.85,0,9.71,0,14.56c0,0.43,0,0.86,0,1.28C7.86,25.18,8.02,25.2,8.19,25.23z M11.3,10.03
			c-0.16,0.02-0.33,0.04-0.49,0.07c0,0.43,0,0.86,0,1.29c0,4.37,0.01,8.74,0,13.11c0,1.61-0.65,2.66-1.86,3.11
			C6.93,28.35,5,26.98,4.99,24.73c-0.02-4.53-0.01-9.06,0-13.59c0-0.82-0.12-1.38-1.27-0.97c0,0.41,0,0.84,0,1.28
			c0,5.02,0.09,10.04-0.03,15.05c-0.11,4.44,0.99,8.24,4.83,10.87c0.97,0.66,1.21,1.57,1.21,2.72C9.7,49.14,9.72,78.2,9.72,87.26
			c0,0.4-0.01,0.81,0.06,1.21c0.15,0.84,0.59,1.45,1.52,1.42c0.98-0.02,1.43-0.66,1.5-1.57c0.05-0.6,0.02-1.21,0.02-1.82
			c0-8.66,0.03-37.32-0.03-45.97c-0.01-1.51,0.38-2.61,1.58-3.54c2.93-2.27,4.17-5.4,4.2-9.01c0.05-5.66,0-11.33,0.03-16.99
			c0-0.93-0.33-1.14-1.21-0.83c-0.02,0.36-0.06,0.72-0.06,1.07c0,3.48,0,6.96,0,10.44c0,1.13,0.06,2.27-0.04,3.4
			c-0.18,2.09-2.16,3.3-4.04,2.5c-1.33-0.56-1.76-1.66-1.76-3.04c0.02-4.41,0.01-8.82,0-13.23C11.48,10.87,11.37,10.45,11.3,10.03z"
			/>
	</g>
	<g>
		<path class="st0" d="M21.34,51.54c0.01-16.84,13.82-30.63,30.69-30.65c16.9-0.02,30.69,13.8,30.68,30.74
			C82.69,68.5,68.87,82.3,52.04,82.28C35.09,82.26,21.33,68.48,21.34,51.54z M80.08,51.6C80.03,36,67.54,23.51,52,23.54
			c-15.51,0.02-28.05,12.55-28.04,28c0.02,15.61,12.67,28.15,28.35,28.1C67.56,79.59,80.14,66.9,80.08,51.6z"/>
		<path class="st0" d="M52.08,82.78c-0.01,0-0.03,0-0.04,0c-17.22-0.02-31.21-14.04-31.2-31.25c0.01-17.15,14-31.13,31.19-31.15
			c0.01,0,0.03,0,0.04,0c8.28,0,16.08,3.24,21.97,9.13c5.92,5.92,9.17,13.77,9.17,22.11c-0.01,8.29-3.27,16.1-9.17,22.01
			C68.14,79.54,60.34,82.78,52.08,82.78z M21.34,51.54h0.5c-0.01,16.65,13.54,30.22,30.2,30.25c0.01,0,0.03,0,0.04,0
			c7.99,0,15.53-3.14,21.24-8.85c5.72-5.71,8.87-13.28,8.88-21.3c0.01-8.07-3.14-15.68-8.87-21.41c-5.7-5.7-13.25-8.84-21.27-8.84
			c-0.01,0-0.02,0-0.04,0C35.4,21.41,21.85,34.93,21.84,51.54H21.34z M52.22,80.14c-7.71,0-14.93-2.97-20.36-8.37
			c-5.41-5.39-8.39-12.57-8.4-20.23C23.44,35.84,36.25,23.06,52,23.04c0.01,0,0.03,0,0.04,0c15.69,0,28.49,12.81,28.54,28.57l0,0
			c0.03,7.53-2.92,14.67-8.29,20.09c-5.37,5.42-12.47,8.42-19.98,8.45C52.28,80.14,52.25,80.14,52.22,80.14z M52.04,24.04
			c-0.01,0-0.03,0-0.04,0c-15.2,0.02-27.55,12.36-27.54,27.5c0.01,7.39,2.89,14.33,8.11,19.52c5.23,5.21,12.21,8.08,19.65,8.08
			c0.03,0,0.06,0,0.09,0c7.24-0.02,14.09-2.92,19.27-8.15c5.19-5.23,8.03-12.12,8-19.38l0,0C79.53,36.4,67.18,24.04,52.04,24.04z"/>
	</g>
	<g>
		<path class="st0" d="M99.65,38.7c0,9.71,0,39.41,0,49.12c0,2.54-1.56,4.38-3.79,4.52c-2.49,0.16-4.4-1.73-4.4-4.39
			c-0.01-6.84-0.02-33.67,0.02-40.51c0.01-0.95-0.24-1.62-0.93-2.32c-3.08-3.14-4.34-7.08-4.4-11.36
			c-0.13-10.04,3.65-18.48,10.79-25.47c0.52-0.51,1.16-1.2,1.86-0.64c0.47,0.37,0.81,1.19,0.81,1.82
			C99.66,19.2,99.65,28.95,99.65,38.7z M97.22,12.11c-0.28,0.17-0.37,0.2-0.42,0.26c-5.56,6.68-8.44,14.29-7.74,23.05
			c0.26,3.27,1.47,6.23,4.05,8.41c0.84,0.71,1.09,1.47,1.09,2.52c-0.03,6.92-0.02,33.83-0.02,40.75c0,0.4-0.13,0.89,0.05,1.19
			c0.32,0.53,0.75,1.18,1.27,1.35c0.79,0.26,1.41-0.3,1.55-1.12c0.13-0.71,0.16-1.44,0.16-2.16c0.01-17.67,0.01-55.34,0.01-73.02
			C97.22,12.99,97.22,12.64,97.22,12.11z"/>
	</g>
	<g>
		<path class="st0" d="M33.61,51.76c0.03-10.33,8.2-18.53,18.47-18.52c10.18,0.01,18.47,8.32,18.43,18.47
			c-0.04,10.2-8.41,18.48-18.63,18.43C41.85,70.09,33.58,61.78,33.61,51.76z M67.94,51.57c-0.01-8.7-7.14-15.87-15.8-15.89
			c-8.87-0.02-16,7.05-16.04,15.9c-0.04,8.66,7.24,15.92,15.94,15.92C60.77,67.5,67.95,60.3,67.94,51.57z"/>
	</g>
</g>
</svg>
